# Blender MTL File: 'World.blend'
# Material Count: 401

newmtl natureKit-_defaultMat.220
Ns 96.078431
Ka 0.000000 0.000000 0.000000
Kd 1.000000 1.000000 1.000000
Ks 0.000000 0.000000 0.000000
Ke 0.000000 0.000000 0.000000
Ni 1.000000
d 1.000000
illum 2

newmtl natureKit-_defaultMat.221
Ns 96.078431
Ka 0.000000 0.000000 0.000000
Kd 1.000000 1.000000 1.000000
Ks 0.000000 0.000000 0.000000
Ke 0.000000 0.000000 0.000000
Ni 1.000000
d 1.000000
illum 2

newmtl natureKit-_defaultMat.222
Ns 96.078431
Ka 0.000000 0.000000 0.000000
Kd 1.000000 1.000000 1.000000
Ks 0.000000 0.000000 0.000000
Ke 0.000000 0.000000 0.000000
Ni 1.000000
d 1.000000
illum 2

newmtl natureKit-_defaultMat.223
Ns 96.078431
Ka 0.000000 0.000000 0.000000
Kd 1.000000 1.000000 1.000000
Ks 0.000000 0.000000 0.000000
Ke 0.000000 0.000000 0.000000
Ni 1.000000
d 1.000000
illum 2

newmtl natureKit-_defaultMat.224
Ns 96.078431
Ka 0.000000 0.000000 0.000000
Kd 1.000000 1.000000 1.000000
Ks 0.000000 0.000000 0.000000
Ke 0.000000 0.000000 0.000000
Ni 1.000000
d 1.000000
illum 2

newmtl natureKit-_defaultMat.225
Ns 96.078431
Ka 0.000000 0.000000 0.000000
Kd 1.000000 1.000000 1.000000
Ks 0.000000 0.000000 0.000000
Ke 0.000000 0.000000 0.000000
Ni 1.000000
d 1.000000
illum 2

newmtl natureKit-_defaultMat.226
Ns 96.078431
Ka 0.000000 0.000000 0.000000
Kd 1.000000 1.000000 1.000000
Ks 0.000000 0.000000 0.000000
Ke 0.000000 0.000000 0.000000
Ni 1.000000
d 1.000000
illum 2

newmtl natureKit-_defaultMat.227
Ns 96.078431
Ka 0.000000 0.000000 0.000000
Kd 1.000000 1.000000 1.000000
Ks 0.000000 0.000000 0.000000
Ke 0.000000 0.000000 0.000000
Ni 1.000000
d 1.000000
illum 2

newmtl natureKit-_defaultMat.228
Ns 96.078431
Ka 0.000000 0.000000 0.000000
Kd 1.000000 1.000000 1.000000
Ks 0.000000 0.000000 0.000000
Ke 0.000000 0.000000 0.000000
Ni 1.000000
d 1.000000
illum 2

newmtl natureKit-_defaultMat.229
Ns 96.078431
Ka 0.000000 0.000000 0.000000
Kd 1.000000 1.000000 1.000000
Ks 0.000000 0.000000 0.000000
Ke 0.000000 0.000000 0.000000
Ni 1.000000
d 1.000000
illum 2

newmtl natureKit-_defaultMat.230
Ns 96.078431
Ka 0.000000 0.000000 0.000000
Kd 1.000000 1.000000 1.000000
Ks 0.000000 0.000000 0.000000
Ke 0.000000 0.000000 0.000000
Ni 1.000000
d 1.000000
illum 2

newmtl natureKit-_defaultMat.231
Ns 96.078431
Ka 0.000000 0.000000 0.000000
Kd 1.000000 1.000000 1.000000
Ks 0.000000 0.000000 0.000000
Ke 0.000000 0.000000 0.000000
Ni 1.000000
d 1.000000
illum 2

newmtl natureKit-_defaultMat.232
Ns 96.078431
Ka 0.000000 0.000000 0.000000
Kd 1.000000 1.000000 1.000000
Ks 0.000000 0.000000 0.000000
Ke 0.000000 0.000000 0.000000
Ni 1.000000
d 1.000000
illum 2

newmtl natureKit-_defaultMat.233
Ns 96.078431
Ka 0.000000 0.000000 0.000000
Kd 1.000000 1.000000 1.000000
Ks 0.000000 0.000000 0.000000
Ke 0.000000 0.000000 0.000000
Ni 1.000000
d 1.000000
illum 2

newmtl natureKit-_defaultMat.234
Ns 96.078431
Ka 0.000000 0.000000 0.000000
Kd 1.000000 1.000000 1.000000
Ks 0.000000 0.000000 0.000000
Ke 0.000000 0.000000 0.000000
Ni 1.000000
d 1.000000
illum 2

newmtl natureKit-leaves.286
Ns 96.078431
Ka 0.000000 0.000000 0.000000
Kd 0.337255 0.627451 0.698039
Ks 0.000000 0.000000 0.000000
Ke 0.000000 0.000000 0.000000
Ni 1.000000
d 1.000000
illum 2

newmtl natureKit-leaves.287
Ns 96.078431
Ka 0.000000 0.000000 0.000000
Kd 0.337255 0.627451 0.698039
Ks 0.000000 0.000000 0.000000
Ke 0.000000 0.000000 0.000000
Ni 1.000000
d 1.000000
illum 2

newmtl natureKit-leaves.288
Ns 96.078431
Ka 0.000000 0.000000 0.000000
Kd 0.337255 0.627451 0.698039
Ks 0.000000 0.000000 0.000000
Ke 0.000000 0.000000 0.000000
Ni 1.000000
d 1.000000
illum 2

newmtl natureKit-leaves.289
Ns 96.078431
Ka 0.000000 0.000000 0.000000
Kd 0.337255 0.627451 0.698039
Ks 0.000000 0.000000 0.000000
Ke 0.000000 0.000000 0.000000
Ni 1.000000
d 1.000000
illum 2

newmtl natureKit-leaves.290
Ns 96.078431
Ka 0.000000 0.000000 0.000000
Kd 0.337255 0.627451 0.698039
Ks 0.000000 0.000000 0.000000
Ke 0.000000 0.000000 0.000000
Ni 1.000000
d 1.000000
illum 2

newmtl natureKit-leaves.291
Ns 96.078431
Ka 0.000000 0.000000 0.000000
Kd 0.337255 0.627451 0.698039
Ks 0.000000 0.000000 0.000000
Ke 0.000000 0.000000 0.000000
Ni 1.000000
d 1.000000
illum 2

newmtl natureKit-leaves.292
Ns 96.078431
Ka 0.000000 0.000000 0.000000
Kd 0.337255 0.627451 0.698039
Ks 0.000000 0.000000 0.000000
Ke 0.000000 0.000000 0.000000
Ni 1.000000
d 1.000000
illum 2

newmtl natureKit-leaves.293
Ns 96.078431
Ka 0.000000 0.000000 0.000000
Kd 0.337255 0.627451 0.698039
Ks 0.000000 0.000000 0.000000
Ke 0.000000 0.000000 0.000000
Ni 1.000000
d 1.000000
illum 2

newmtl natureKit-leaves.294
Ns 96.078431
Ka 0.000000 0.000000 0.000000
Kd 0.337255 0.627451 0.698039
Ks 0.000000 0.000000 0.000000
Ke 0.000000 0.000000 0.000000
Ni 1.000000
d 1.000000
illum 2

newmtl natureKit-leaves.295
Ns 96.078431
Ka 0.000000 0.000000 0.000000
Kd 0.337255 0.627451 0.698039
Ks 0.000000 0.000000 0.000000
Ke 0.000000 0.000000 0.000000
Ni 1.000000
d 1.000000
illum 2

newmtl natureKit-leaves.296
Ns 96.078431
Ka 0.000000 0.000000 0.000000
Kd 0.337255 0.627451 0.698039
Ks 0.000000 0.000000 0.000000
Ke 0.000000 0.000000 0.000000
Ni 1.000000
d 1.000000
illum 2

newmtl natureKit-leaves.297
Ns 96.078431
Ka 0.000000 0.000000 0.000000
Kd 0.337255 0.627451 0.698039
Ks 0.000000 0.000000 0.000000
Ke 0.000000 0.000000 0.000000
Ni 1.000000
d 1.000000
illum 2

newmtl natureKit-leaves.298
Ns 96.078431
Ka 0.000000 0.000000 0.000000
Kd 0.337255 0.627451 0.698039
Ks 0.000000 0.000000 0.000000
Ke 0.000000 0.000000 0.000000
Ni 1.000000
d 1.000000
illum 2

newmtl natureKit-leaves.299
Ns 96.078431
Ka 0.000000 0.000000 0.000000
Kd 0.337255 0.627451 0.698039
Ks 0.000000 0.000000 0.000000
Ke 0.000000 0.000000 0.000000
Ni 1.000000
d 1.000000
illum 2

newmtl natureKit-leaves.300
Ns 96.078431
Ka 0.000000 0.000000 0.000000
Kd 0.337255 0.627451 0.698039
Ks 0.000000 0.000000 0.000000
Ke 0.000000 0.000000 0.000000
Ni 1.000000
d 1.000000
illum 2

newmtl natureKit-leaves.301
Ns 96.078431
Ka 0.000000 0.000000 0.000000
Kd 0.337255 0.627451 0.698039
Ks 0.000000 0.000000 0.000000
Ke 0.000000 0.000000 0.000000
Ni 1.000000
d 1.000000
illum 2

newmtl natureKit-leaves.302
Ns 96.078431
Ka 0.000000 0.000000 0.000000
Kd 0.337255 0.627451 0.698039
Ks 0.000000 0.000000 0.000000
Ke 0.000000 0.000000 0.000000
Ni 1.000000
d 1.000000
illum 2

newmtl natureKit-leaves.303
Ns 96.078431
Ka 0.000000 0.000000 0.000000
Kd 0.337255 0.627451 0.698039
Ks 0.000000 0.000000 0.000000
Ke 0.000000 0.000000 0.000000
Ni 1.000000
d 1.000000
illum 2

newmtl natureKit-leaves.304
Ns 96.078431
Ka 0.000000 0.000000 0.000000
Kd 0.337255 0.627451 0.698039
Ks 0.000000 0.000000 0.000000
Ke 0.000000 0.000000 0.000000
Ni 1.000000
d 1.000000
illum 2

newmtl natureKit-leaves.305
Ns 96.078431
Ka 0.000000 0.000000 0.000000
Kd 0.337255 0.627451 0.698039
Ks 0.000000 0.000000 0.000000
Ke 0.000000 0.000000 0.000000
Ni 1.000000
d 1.000000
illum 2

newmtl natureKit-leaves.306
Ns 96.078431
Ka 0.000000 0.000000 0.000000
Kd 0.337255 0.627451 0.698039
Ks 0.000000 0.000000 0.000000
Ke 0.000000 0.000000 0.000000
Ni 1.000000
d 1.000000
illum 2

newmtl natureKit-leaves.307
Ns 96.078431
Ka 0.000000 0.000000 0.000000
Kd 0.337255 0.627451 0.698039
Ks 0.000000 0.000000 0.000000
Ke 0.000000 0.000000 0.000000
Ni 1.000000
d 1.000000
illum 2

newmtl natureKit-leaves.308
Ns 96.078431
Ka 0.000000 0.000000 0.000000
Kd 0.337255 0.627451 0.698039
Ks 0.000000 0.000000 0.000000
Ke 0.000000 0.000000 0.000000
Ni 1.000000
d 1.000000
illum 2

newmtl natureKit-leaves.309
Ns 96.078431
Ka 0.000000 0.000000 0.000000
Kd 0.337255 0.627451 0.698039
Ks 0.000000 0.000000 0.000000
Ke 0.000000 0.000000 0.000000
Ni 1.000000
d 1.000000
illum 2

newmtl natureKit-leaves.310
Ns 96.078431
Ka 0.000000 0.000000 0.000000
Kd 0.337255 0.627451 0.698039
Ks 0.000000 0.000000 0.000000
Ke 0.000000 0.000000 0.000000
Ni 1.000000
d 1.000000
illum 2

newmtl natureKit-leaves.311
Ns 96.078431
Ka 0.000000 0.000000 0.000000
Kd 0.337255 0.627451 0.698039
Ks 0.000000 0.000000 0.000000
Ke 0.000000 0.000000 0.000000
Ni 1.000000
d 1.000000
illum 2

newmtl natureKit-leavesFall.121
Ns 96.078431
Ka 0.000000 0.000000 0.000000
Kd 0.949020 0.552941 0.145098
Ks 0.000000 0.000000 0.000000
Ke 0.000000 0.000000 0.000000
Ni 1.000000
d 1.000000
illum 2

newmtl natureKit-leavesFall.122
Ns 96.078431
Ka 0.000000 0.000000 0.000000
Kd 0.949020 0.552941 0.145098
Ks 0.000000 0.000000 0.000000
Ke 0.000000 0.000000 0.000000
Ni 1.000000
d 1.000000
illum 2

newmtl natureKit-leavesFall.123
Ns 96.078431
Ka 0.000000 0.000000 0.000000
Kd 0.949020 0.552941 0.145098
Ks 0.000000 0.000000 0.000000
Ke 0.000000 0.000000 0.000000
Ni 1.000000
d 1.000000
illum 2

newmtl natureKit-leavesFall.124
Ns 96.078431
Ka 0.000000 0.000000 0.000000
Kd 0.949020 0.552941 0.145098
Ks 0.000000 0.000000 0.000000
Ke 0.000000 0.000000 0.000000
Ni 1.000000
d 1.000000
illum 2

newmtl natureKit-leavesFall.125
Ns 96.078431
Ka 0.000000 0.000000 0.000000
Kd 0.949020 0.552941 0.145098
Ks 0.000000 0.000000 0.000000
Ke 0.000000 0.000000 0.000000
Ni 1.000000
d 1.000000
illum 2

newmtl natureKit-leavesFall.126
Ns 96.078431
Ka 0.000000 0.000000 0.000000
Kd 0.949020 0.552941 0.145098
Ks 0.000000 0.000000 0.000000
Ke 0.000000 0.000000 0.000000
Ni 1.000000
d 1.000000
illum 2

newmtl natureKit-leavesFall.127
Ns 96.078431
Ka 0.000000 0.000000 0.000000
Kd 0.949020 0.552941 0.145098
Ks 0.000000 0.000000 0.000000
Ke 0.000000 0.000000 0.000000
Ni 1.000000
d 1.000000
illum 2

newmtl natureKit-leavesFall.128
Ns 96.078431
Ka 0.000000 0.000000 0.000000
Kd 0.949020 0.552941 0.145098
Ks 0.000000 0.000000 0.000000
Ke 0.000000 0.000000 0.000000
Ni 1.000000
d 1.000000
illum 2

newmtl natureKit-leavesFall.129
Ns 96.078431
Ka 0.000000 0.000000 0.000000
Kd 0.949020 0.552941 0.145098
Ks 0.000000 0.000000 0.000000
Ke 0.000000 0.000000 0.000000
Ni 1.000000
d 1.000000
illum 2

newmtl natureKit-leavesFall.130
Ns 96.078431
Ka 0.000000 0.000000 0.000000
Kd 0.949020 0.552941 0.145098
Ks 0.000000 0.000000 0.000000
Ke 0.000000 0.000000 0.000000
Ni 1.000000
d 1.000000
illum 2

newmtl natureKit-leavesFall.131
Ns 96.078431
Ka 0.000000 0.000000 0.000000
Kd 0.949020 0.552941 0.145098
Ks 0.000000 0.000000 0.000000
Ke 0.000000 0.000000 0.000000
Ni 1.000000
d 1.000000
illum 2

newmtl natureKit-leavesGreen.1203
Ns 96.078431
Ka 0.000000 0.000000 0.000000
Kd 0.352941 0.768628 0.713726
Ks 0.000000 0.000000 0.000000
Ke 0.000000 0.000000 0.000000
Ni 1.000000
d 1.000000
illum 2

newmtl natureKit-leavesGreen.1204
Ns 96.078431
Ka 0.000000 0.000000 0.000000
Kd 0.352941 0.768628 0.713726
Ks 0.000000 0.000000 0.000000
Ke 0.000000 0.000000 0.000000
Ni 1.000000
d 1.000000
illum 2

newmtl natureKit-leavesGreen.1205
Ns 96.078431
Ka 0.000000 0.000000 0.000000
Kd 0.352941 0.768628 0.713726
Ks 0.000000 0.000000 0.000000
Ke 0.000000 0.000000 0.000000
Ni 1.000000
d 1.000000
illum 2

newmtl natureKit-leavesGreen.1206
Ns 96.078431
Ka 0.000000 0.000000 0.000000
Kd 0.352941 0.768628 0.713726
Ks 0.000000 0.000000 0.000000
Ke 0.000000 0.000000 0.000000
Ni 1.000000
d 1.000000
illum 2

newmtl natureKit-leavesGreen.1207
Ns 96.078431
Ka 0.000000 0.000000 0.000000
Kd 0.352941 0.768628 0.713726
Ks 0.000000 0.000000 0.000000
Ke 0.000000 0.000000 0.000000
Ni 1.000000
d 1.000000
illum 2

newmtl natureKit-leavesGreen.1208
Ns 96.078431
Ka 0.000000 0.000000 0.000000
Kd 0.352941 0.768628 0.713726
Ks 0.000000 0.000000 0.000000
Ke 0.000000 0.000000 0.000000
Ni 1.000000
d 1.000000
illum 2

newmtl natureKit-leavesGreen.1209
Ns 96.078431
Ka 0.000000 0.000000 0.000000
Kd 0.352941 0.768628 0.713726
Ks 0.000000 0.000000 0.000000
Ke 0.000000 0.000000 0.000000
Ni 1.000000
d 1.000000
illum 2

newmtl natureKit-leavesGreen.1210
Ns 96.078431
Ka 0.000000 0.000000 0.000000
Kd 0.352941 0.768628 0.713726
Ks 0.000000 0.000000 0.000000
Ke 0.000000 0.000000 0.000000
Ni 1.000000
d 1.000000
illum 2

newmtl natureKit-leavesGreen.1211
Ns 96.078431
Ka 0.000000 0.000000 0.000000
Kd 0.352941 0.768628 0.713726
Ks 0.000000 0.000000 0.000000
Ke 0.000000 0.000000 0.000000
Ni 1.000000
d 1.000000
illum 2

newmtl natureKit-leavesGreen.1212
Ns 96.078431
Ka 0.000000 0.000000 0.000000
Kd 0.352941 0.768628 0.713726
Ks 0.000000 0.000000 0.000000
Ke 0.000000 0.000000 0.000000
Ni 1.000000
d 1.000000
illum 2

newmtl natureKit-leavesGreen.1213
Ns 96.078431
Ka 0.000000 0.000000 0.000000
Kd 0.352941 0.768628 0.713726
Ks 0.000000 0.000000 0.000000
Ke 0.000000 0.000000 0.000000
Ni 1.000000
d 1.000000
illum 2

newmtl natureKit-leavesGreen.1214
Ns 96.078431
Ka 0.000000 0.000000 0.000000
Kd 0.352941 0.768628 0.713726
Ks 0.000000 0.000000 0.000000
Ke 0.000000 0.000000 0.000000
Ni 1.000000
d 1.000000
illum 2

newmtl natureKit-leavesGreen.1215
Ns 96.078431
Ka 0.000000 0.000000 0.000000
Kd 0.352941 0.768628 0.713726
Ks 0.000000 0.000000 0.000000
Ke 0.000000 0.000000 0.000000
Ni 1.000000
d 1.000000
illum 2

newmtl natureKit-leavesGreen.1216
Ns 96.078431
Ka 0.000000 0.000000 0.000000
Kd 0.352941 0.768628 0.713726
Ks 0.000000 0.000000 0.000000
Ke 0.000000 0.000000 0.000000
Ni 1.000000
d 1.000000
illum 2

newmtl natureKit-leavesGreen.1217
Ns 96.078431
Ka 0.000000 0.000000 0.000000
Kd 0.352941 0.768628 0.713726
Ks 0.000000 0.000000 0.000000
Ke 0.000000 0.000000 0.000000
Ni 1.000000
d 1.000000
illum 2

newmtl natureKit-leavesGreen.1218
Ns 96.078431
Ka 0.000000 0.000000 0.000000
Kd 0.352941 0.768628 0.713726
Ks 0.000000 0.000000 0.000000
Ke 0.000000 0.000000 0.000000
Ni 1.000000
d 1.000000
illum 2

newmtl natureKit-leavesGreen.1219
Ns 96.078431
Ka 0.000000 0.000000 0.000000
Kd 0.352941 0.768628 0.713726
Ks 0.000000 0.000000 0.000000
Ke 0.000000 0.000000 0.000000
Ni 1.000000
d 1.000000
illum 2

newmtl natureKit-leavesGreen.1220
Ns 96.078431
Ka 0.000000 0.000000 0.000000
Kd 0.352941 0.768628 0.713726
Ks 0.000000 0.000000 0.000000
Ke 0.000000 0.000000 0.000000
Ni 1.000000
d 1.000000
illum 2

newmtl natureKit-leavesGreen.1221
Ns 96.078431
Ka 0.000000 0.000000 0.000000
Kd 0.352941 0.768628 0.713726
Ks 0.000000 0.000000 0.000000
Ke 0.000000 0.000000 0.000000
Ni 1.000000
d 1.000000
illum 2

newmtl natureKit-leavesGreen.1222
Ns 96.078431
Ka 0.000000 0.000000 0.000000
Kd 0.352941 0.768628 0.713726
Ks 0.000000 0.000000 0.000000
Ke 0.000000 0.000000 0.000000
Ni 1.000000
d 1.000000
illum 2

newmtl natureKit-leavesGreen.1223
Ns 96.078431
Ka 0.000000 0.000000 0.000000
Kd 0.352941 0.768628 0.713726
Ks 0.000000 0.000000 0.000000
Ke 0.000000 0.000000 0.000000
Ni 1.000000
d 1.000000
illum 2

newmtl natureKit-leavesGreen.1224
Ns 96.078431
Ka 0.000000 0.000000 0.000000
Kd 0.352941 0.768628 0.713726
Ks 0.000000 0.000000 0.000000
Ke 0.000000 0.000000 0.000000
Ni 1.000000
d 1.000000
illum 2

newmtl natureKit-leavesGreen.1225
Ns 96.078431
Ka 0.000000 0.000000 0.000000
Kd 0.352941 0.768628 0.713726
Ks 0.000000 0.000000 0.000000
Ke 0.000000 0.000000 0.000000
Ni 1.000000
d 1.000000
illum 2

newmtl natureKit-leavesGreen.1226
Ns 96.078431
Ka 0.000000 0.000000 0.000000
Kd 0.352941 0.768628 0.713726
Ks 0.000000 0.000000 0.000000
Ke 0.000000 0.000000 0.000000
Ni 1.000000
d 1.000000
illum 2

newmtl natureKit-leavesGreen.1227
Ns 96.078431
Ka 0.000000 0.000000 0.000000
Kd 0.352941 0.768628 0.713726
Ks 0.000000 0.000000 0.000000
Ke 0.000000 0.000000 0.000000
Ni 1.000000
d 1.000000
illum 2

newmtl natureKit-leavesGreen.1228
Ns 96.078431
Ka 0.000000 0.000000 0.000000
Kd 0.352941 0.768628 0.713726
Ks 0.000000 0.000000 0.000000
Ke 0.000000 0.000000 0.000000
Ni 1.000000
d 1.000000
illum 2

newmtl natureKit-leavesGreen.1229
Ns 96.078431
Ka 0.000000 0.000000 0.000000
Kd 0.352941 0.768628 0.713726
Ks 0.000000 0.000000 0.000000
Ke 0.000000 0.000000 0.000000
Ni 1.000000
d 1.000000
illum 2

newmtl natureKit-leavesGreen.1230
Ns 96.078431
Ka 0.000000 0.000000 0.000000
Kd 0.352941 0.768628 0.713726
Ks 0.000000 0.000000 0.000000
Ke 0.000000 0.000000 0.000000
Ni 1.000000
d 1.000000
illum 2

newmtl natureKit-leavesGreen.1231
Ns 96.078431
Ka 0.000000 0.000000 0.000000
Kd 0.352941 0.768628 0.713726
Ks 0.000000 0.000000 0.000000
Ke 0.000000 0.000000 0.000000
Ni 1.000000
d 1.000000
illum 2

newmtl natureKit-leavesGreen.1232
Ns 96.078431
Ka 0.000000 0.000000 0.000000
Kd 0.352941 0.768628 0.713726
Ks 0.000000 0.000000 0.000000
Ke 0.000000 0.000000 0.000000
Ni 1.000000
d 1.000000
illum 2

newmtl natureKit-leavesGreen.1233
Ns 96.078431
Ka 0.000000 0.000000 0.000000
Kd 0.352941 0.768628 0.713726
Ks 0.000000 0.000000 0.000000
Ke 0.000000 0.000000 0.000000
Ni 1.000000
d 1.000000
illum 2

newmtl natureKit-leavesGreen.1234
Ns 96.078431
Ka 0.000000 0.000000 0.000000
Kd 0.352941 0.768628 0.713726
Ks 0.000000 0.000000 0.000000
Ke 0.000000 0.000000 0.000000
Ni 1.000000
d 1.000000
illum 2

newmtl natureKit-leavesGreen.1235
Ns 96.078431
Ka 0.000000 0.000000 0.000000
Kd 0.352941 0.768628 0.713726
Ks 0.000000 0.000000 0.000000
Ke 0.000000 0.000000 0.000000
Ni 1.000000
d 1.000000
illum 2

newmtl natureKit-leavesGreen.1236
Ns 96.078431
Ka 0.000000 0.000000 0.000000
Kd 0.352941 0.768628 0.713726
Ks 0.000000 0.000000 0.000000
Ke 0.000000 0.000000 0.000000
Ni 1.000000
d 1.000000
illum 2

newmtl natureKit-leavesGreen.1237
Ns 96.078431
Ka 0.000000 0.000000 0.000000
Kd 0.352941 0.768628 0.713726
Ks 0.000000 0.000000 0.000000
Ke 0.000000 0.000000 0.000000
Ni 1.000000
d 1.000000
illum 2

newmtl natureKit-leavesGreen.1238
Ns 96.078431
Ka 0.000000 0.000000 0.000000
Kd 0.352941 0.768628 0.713726
Ks 0.000000 0.000000 0.000000
Ke 0.000000 0.000000 0.000000
Ni 1.000000
d 1.000000
illum 2

newmtl natureKit-leavesGreen.1239
Ns 96.078431
Ka 0.000000 0.000000 0.000000
Kd 0.352941 0.768628 0.713726
Ks 0.000000 0.000000 0.000000
Ke 0.000000 0.000000 0.000000
Ni 1.000000
d 1.000000
illum 2

newmtl natureKit-leavesGreen.1240
Ns 96.078431
Ka 0.000000 0.000000 0.000000
Kd 0.352941 0.768628 0.713726
Ks 0.000000 0.000000 0.000000
Ke 0.000000 0.000000 0.000000
Ni 1.000000
d 1.000000
illum 2

newmtl natureKit-leavesGreen.1241
Ns 96.078431
Ka 0.000000 0.000000 0.000000
Kd 0.352941 0.768628 0.713726
Ks 0.000000 0.000000 0.000000
Ke 0.000000 0.000000 0.000000
Ni 1.000000
d 1.000000
illum 2

newmtl natureKit-leavesGreen.1242
Ns 96.078431
Ka 0.000000 0.000000 0.000000
Kd 0.352941 0.768628 0.713726
Ks 0.000000 0.000000 0.000000
Ke 0.000000 0.000000 0.000000
Ni 1.000000
d 1.000000
illum 2

newmtl natureKit-leavesGreen.1243
Ns 96.078431
Ka 0.000000 0.000000 0.000000
Kd 0.352941 0.768628 0.713726
Ks 0.000000 0.000000 0.000000
Ke 0.000000 0.000000 0.000000
Ni 1.000000
d 1.000000
illum 2

newmtl natureKit-leavesGreen.1244
Ns 96.078431
Ka 0.000000 0.000000 0.000000
Kd 0.352941 0.768628 0.713726
Ks 0.000000 0.000000 0.000000
Ke 0.000000 0.000000 0.000000
Ni 1.000000
d 1.000000
illum 2

newmtl natureKit-leavesGreen.1245
Ns 96.078431
Ka 0.000000 0.000000 0.000000
Kd 0.352941 0.768628 0.713726
Ks 0.000000 0.000000 0.000000
Ke 0.000000 0.000000 0.000000
Ni 1.000000
d 1.000000
illum 2

newmtl natureKit-leavesGreen.1246
Ns 96.078431
Ka 0.000000 0.000000 0.000000
Kd 0.352941 0.768628 0.713726
Ks 0.000000 0.000000 0.000000
Ke 0.000000 0.000000 0.000000
Ni 1.000000
d 1.000000
illum 2

newmtl natureKit-leavesGreen.1247
Ns 96.078431
Ka 0.000000 0.000000 0.000000
Kd 0.352941 0.768628 0.713726
Ks 0.000000 0.000000 0.000000
Ke 0.000000 0.000000 0.000000
Ni 1.000000
d 1.000000
illum 2

newmtl natureKit-leavesGreen.1248
Ns 96.078431
Ka 0.000000 0.000000 0.000000
Kd 0.352941 0.768628 0.713726
Ks 0.000000 0.000000 0.000000
Ke 0.000000 0.000000 0.000000
Ni 1.000000
d 1.000000
illum 2

newmtl natureKit-leavesGreen.1249
Ns 96.078431
Ka 0.000000 0.000000 0.000000
Kd 0.352941 0.768628 0.713726
Ks 0.000000 0.000000 0.000000
Ke 0.000000 0.000000 0.000000
Ni 1.000000
d 1.000000
illum 2

newmtl natureKit-leavesGreen.1250
Ns 96.078431
Ka 0.000000 0.000000 0.000000
Kd 0.352941 0.768628 0.713726
Ks 0.000000 0.000000 0.000000
Ke 0.000000 0.000000 0.000000
Ni 1.000000
d 1.000000
illum 2

newmtl natureKit-leavesGreen.1251
Ns 96.078431
Ka 0.000000 0.000000 0.000000
Kd 0.352941 0.768628 0.713726
Ks 0.000000 0.000000 0.000000
Ke 0.000000 0.000000 0.000000
Ni 1.000000
d 1.000000
illum 2

newmtl natureKit-leavesGreen.1253
Ns 96.078431
Ka 0.000000 0.000000 0.000000
Kd 0.352941 0.768628 0.713726
Ks 0.000000 0.000000 0.000000
Ke 0.000000 0.000000 0.000000
Ni 1.000000
d 1.000000
illum 2

newmtl natureKit-leavesGreen.1254
Ns 96.078431
Ka 0.000000 0.000000 0.000000
Kd 0.352941 0.768628 0.713726
Ks 0.000000 0.000000 0.000000
Ke 0.000000 0.000000 0.000000
Ni 1.000000
d 1.000000
illum 2

newmtl natureKit-leavesGreen.1255
Ns 96.078431
Ka 0.000000 0.000000 0.000000
Kd 0.352941 0.768628 0.713726
Ks 0.000000 0.000000 0.000000
Ke 0.000000 0.000000 0.000000
Ni 1.000000
d 1.000000
illum 2

newmtl natureKit-leavesGreen.1257
Ns 96.078431
Ka 0.000000 0.000000 0.000000
Kd 0.352941 0.768628 0.713726
Ks 0.000000 0.000000 0.000000
Ke 0.000000 0.000000 0.000000
Ni 1.000000
d 1.000000
illum 2

newmtl natureKit-leavesGreen.1258
Ns 96.078431
Ka 0.000000 0.000000 0.000000
Kd 0.352941 0.768628 0.713726
Ks 0.000000 0.000000 0.000000
Ke 0.000000 0.000000 0.000000
Ni 1.000000
d 1.000000
illum 2

newmtl natureKit-leavesGreen.1259
Ns 96.078431
Ka 0.000000 0.000000 0.000000
Kd 0.352941 0.768628 0.713726
Ks 0.000000 0.000000 0.000000
Ke 0.000000 0.000000 0.000000
Ni 1.000000
d 1.000000
illum 2

newmtl natureKit-leavesGreen.1260
Ns 96.078431
Ka 0.000000 0.000000 0.000000
Kd 0.352941 0.768628 0.713726
Ks 0.000000 0.000000 0.000000
Ke 0.000000 0.000000 0.000000
Ni 1.000000
d 1.000000
illum 2

newmtl natureKit-leavesGreen.1261
Ns 96.078431
Ka 0.000000 0.000000 0.000000
Kd 0.352941 0.768628 0.713726
Ks 0.000000 0.000000 0.000000
Ke 0.000000 0.000000 0.000000
Ni 1.000000
d 1.000000
illum 2

newmtl natureKit-leavesGreen.1262
Ns 96.078431
Ka 0.000000 0.000000 0.000000
Kd 0.352941 0.768628 0.713726
Ks 0.000000 0.000000 0.000000
Ke 0.000000 0.000000 0.000000
Ni 1.000000
d 1.000000
illum 2

newmtl natureKit-leavesGreen.1263
Ns 96.078431
Ka 0.000000 0.000000 0.000000
Kd 0.352941 0.768628 0.713726
Ks 0.000000 0.000000 0.000000
Ke 0.000000 0.000000 0.000000
Ni 1.000000
d 1.000000
illum 2

newmtl natureKit-leavesGreen.1264
Ns 96.078431
Ka 0.000000 0.000000 0.000000
Kd 0.352941 0.768628 0.713726
Ks 0.000000 0.000000 0.000000
Ke 0.000000 0.000000 0.000000
Ni 1.000000
d 1.000000
illum 2

newmtl natureKit-leavesGreen.1265
Ns 96.078431
Ka 0.000000 0.000000 0.000000
Kd 0.352941 0.768628 0.713726
Ks 0.000000 0.000000 0.000000
Ke 0.000000 0.000000 0.000000
Ni 1.000000
d 1.000000
illum 2

newmtl natureKit-leavesGreen.1266
Ns 96.078431
Ka 0.000000 0.000000 0.000000
Kd 0.352941 0.768628 0.713726
Ks 0.000000 0.000000 0.000000
Ke 0.000000 0.000000 0.000000
Ni 1.000000
d 1.000000
illum 2

newmtl natureKit-leavesGreen.1267
Ns 96.078431
Ka 0.000000 0.000000 0.000000
Kd 0.352941 0.768628 0.713726
Ks 0.000000 0.000000 0.000000
Ke 0.000000 0.000000 0.000000
Ni 1.000000
d 1.000000
illum 2

newmtl natureKit-leavesGreen.1268
Ns 96.078431
Ka 0.000000 0.000000 0.000000
Kd 0.352941 0.768628 0.713726
Ks 0.000000 0.000000 0.000000
Ke 0.000000 0.000000 0.000000
Ni 1.000000
d 1.000000
illum 2

newmtl natureKit-leavesGreen.1269
Ns 96.078431
Ka 0.000000 0.000000 0.000000
Kd 0.352941 0.768628 0.713726
Ks 0.000000 0.000000 0.000000
Ke 0.000000 0.000000 0.000000
Ni 1.000000
d 1.000000
illum 2

newmtl natureKit-leavesGreen.1270
Ns 96.078431
Ka 0.000000 0.000000 0.000000
Kd 0.352941 0.768628 0.713726
Ks 0.000000 0.000000 0.000000
Ke 0.000000 0.000000 0.000000
Ni 1.000000
d 1.000000
illum 2

newmtl natureKit-leavesGreen.1271
Ns 96.078431
Ka 0.000000 0.000000 0.000000
Kd 0.352941 0.768628 0.713726
Ks 0.000000 0.000000 0.000000
Ke 0.000000 0.000000 0.000000
Ni 1.000000
d 1.000000
illum 2

newmtl natureKit-leavesGreen.1272
Ns 96.078431
Ka 0.000000 0.000000 0.000000
Kd 0.352941 0.768628 0.713726
Ks 0.000000 0.000000 0.000000
Ke 0.000000 0.000000 0.000000
Ni 1.000000
d 1.000000
illum 2

newmtl natureKit-leavesGreen.1273
Ns 96.078431
Ka 0.000000 0.000000 0.000000
Kd 0.352941 0.768628 0.713726
Ks 0.000000 0.000000 0.000000
Ke 0.000000 0.000000 0.000000
Ni 1.000000
d 1.000000
illum 2

newmtl natureKit-leavesGreen.1274
Ns 96.078431
Ka 0.000000 0.000000 0.000000
Kd 0.352941 0.768628 0.713726
Ks 0.000000 0.000000 0.000000
Ke 0.000000 0.000000 0.000000
Ni 1.000000
d 1.000000
illum 2

newmtl natureKit-leavesGreen.1275
Ns 96.078431
Ka 0.000000 0.000000 0.000000
Kd 0.352941 0.768628 0.713726
Ks 0.000000 0.000000 0.000000
Ke 0.000000 0.000000 0.000000
Ni 1.000000
d 1.000000
illum 2

newmtl natureKit-leavesGreen.1276
Ns 96.078431
Ka 0.000000 0.000000 0.000000
Kd 0.352941 0.768628 0.713726
Ks 0.000000 0.000000 0.000000
Ke 0.000000 0.000000 0.000000
Ni 1.000000
d 1.000000
illum 2

newmtl natureKit-leavesGreen.1277
Ns 96.078431
Ka 0.000000 0.000000 0.000000
Kd 0.352941 0.768628 0.713726
Ks 0.000000 0.000000 0.000000
Ke 0.000000 0.000000 0.000000
Ni 1.000000
d 1.000000
illum 2

newmtl natureKit-leavesGreen.1278
Ns 96.078431
Ka 0.000000 0.000000 0.000000
Kd 0.352941 0.768628 0.713726
Ks 0.000000 0.000000 0.000000
Ke 0.000000 0.000000 0.000000
Ni 1.000000
d 1.000000
illum 2

newmtl natureKit-leavesGreen.1279
Ns 96.078431
Ka 0.000000 0.000000 0.000000
Kd 0.352941 0.768628 0.713726
Ks 0.000000 0.000000 0.000000
Ke 0.000000 0.000000 0.000000
Ni 1.000000
d 1.000000
illum 2

newmtl natureKit-leavesGreen.1280
Ns 96.078431
Ka 0.000000 0.000000 0.000000
Kd 0.352941 0.768628 0.713726
Ks 0.000000 0.000000 0.000000
Ke 0.000000 0.000000 0.000000
Ni 1.000000
d 1.000000
illum 2

newmtl natureKit-leavesGreen.1281
Ns 96.078431
Ka 0.000000 0.000000 0.000000
Kd 0.352941 0.768628 0.713726
Ks 0.000000 0.000000 0.000000
Ke 0.000000 0.000000 0.000000
Ni 1.000000
d 1.000000
illum 2

newmtl natureKit-leavesGreen.1282
Ns 96.078431
Ka 0.000000 0.000000 0.000000
Kd 0.352941 0.768628 0.713726
Ks 0.000000 0.000000 0.000000
Ke 0.000000 0.000000 0.000000
Ni 1.000000
d 1.000000
illum 2

newmtl natureKit-leavesGreen.1283
Ns 96.078431
Ka 0.000000 0.000000 0.000000
Kd 0.352941 0.768628 0.713726
Ks 0.000000 0.000000 0.000000
Ke 0.000000 0.000000 0.000000
Ni 1.000000
d 1.000000
illum 2

newmtl natureKit-leavesGreen.1284
Ns 96.078431
Ka 0.000000 0.000000 0.000000
Kd 0.352941 0.768628 0.713726
Ks 0.000000 0.000000 0.000000
Ke 0.000000 0.000000 0.000000
Ni 1.000000
d 1.000000
illum 2

newmtl natureKit-leavesGreen.1285
Ns 96.078431
Ka 0.000000 0.000000 0.000000
Kd 0.352941 0.768628 0.713726
Ks 0.000000 0.000000 0.000000
Ke 0.000000 0.000000 0.000000
Ni 1.000000
d 1.000000
illum 2

newmtl natureKit-leavesGreen.1286
Ns 96.078431
Ka 0.000000 0.000000 0.000000
Kd 0.352941 0.768628 0.713726
Ks 0.000000 0.000000 0.000000
Ke 0.000000 0.000000 0.000000
Ni 1.000000
d 1.000000
illum 2

newmtl natureKit-leavesGreen.1287
Ns 96.078431
Ka 0.000000 0.000000 0.000000
Kd 0.352941 0.768628 0.713726
Ks 0.000000 0.000000 0.000000
Ke 0.000000 0.000000 0.000000
Ni 1.000000
d 1.000000
illum 2

newmtl natureKit-leavesGreen.1288
Ns 96.078431
Ka 0.000000 0.000000 0.000000
Kd 0.352941 0.768628 0.713726
Ks 0.000000 0.000000 0.000000
Ke 0.000000 0.000000 0.000000
Ni 1.000000
d 1.000000
illum 2

newmtl natureKit-leavesGreen.1289
Ns 96.078431
Ka 0.000000 0.000000 0.000000
Kd 0.352941 0.768628 0.713726
Ks 0.000000 0.000000 0.000000
Ke 0.000000 0.000000 0.000000
Ni 1.000000
d 1.000000
illum 2

newmtl natureKit-leavesGreen.1290
Ns 96.078431
Ka 0.000000 0.000000 0.000000
Kd 0.352941 0.768628 0.713726
Ks 0.000000 0.000000 0.000000
Ke 0.000000 0.000000 0.000000
Ni 1.000000
d 1.000000
illum 2

newmtl natureKit-leavesGreen.1291
Ns 96.078431
Ka 0.000000 0.000000 0.000000
Kd 0.352941 0.768628 0.713726
Ks 0.000000 0.000000 0.000000
Ke 0.000000 0.000000 0.000000
Ni 1.000000
d 1.000000
illum 2

newmtl natureKit-leavesGreen.1292
Ns 96.078431
Ka 0.000000 0.000000 0.000000
Kd 0.352941 0.768628 0.713726
Ks 0.000000 0.000000 0.000000
Ke 0.000000 0.000000 0.000000
Ni 1.000000
d 1.000000
illum 2

newmtl natureKit-leavesGreen.1293
Ns 96.078431
Ka 0.000000 0.000000 0.000000
Kd 0.352941 0.768628 0.713726
Ks 0.000000 0.000000 0.000000
Ke 0.000000 0.000000 0.000000
Ni 1.000000
d 1.000000
illum 2

newmtl natureKit-leavesGreen.1294
Ns 96.078431
Ka 0.000000 0.000000 0.000000
Kd 0.352941 0.768628 0.713726
Ks 0.000000 0.000000 0.000000
Ke 0.000000 0.000000 0.000000
Ni 1.000000
d 1.000000
illum 2

newmtl natureKit-leavesGreen.1295
Ns 96.078431
Ka 0.000000 0.000000 0.000000
Kd 0.352941 0.768628 0.713726
Ks 0.000000 0.000000 0.000000
Ke 0.000000 0.000000 0.000000
Ni 1.000000
d 1.000000
illum 2

newmtl natureKit-leavesGreen.1296
Ns 96.078431
Ka 0.000000 0.000000 0.000000
Kd 0.352941 0.768628 0.713726
Ks 0.000000 0.000000 0.000000
Ke 0.000000 0.000000 0.000000
Ni 1.000000
d 1.000000
illum 2

newmtl natureKit-leavesGreen.1297
Ns 96.078431
Ka 0.000000 0.000000 0.000000
Kd 0.352941 0.768628 0.713726
Ks 0.000000 0.000000 0.000000
Ke 0.000000 0.000000 0.000000
Ni 1.000000
d 1.000000
illum 2

newmtl natureKit-leavesGreen.1298
Ns 96.078431
Ka 0.000000 0.000000 0.000000
Kd 0.352941 0.768628 0.713726
Ks 0.000000 0.000000 0.000000
Ke 0.000000 0.000000 0.000000
Ni 1.000000
d 1.000000
illum 2

newmtl natureKit-leavesGreen.1301
Ns 96.078431
Ka 0.000000 0.000000 0.000000
Kd 0.352941 0.768628 0.713726
Ks 0.000000 0.000000 0.000000
Ke 0.000000 0.000000 0.000000
Ni 1.000000
d 1.000000
illum 2

newmtl natureKit-leavesGreen.1302
Ns 96.078431
Ka 0.000000 0.000000 0.000000
Kd 0.352941 0.768628 0.713726
Ks 0.000000 0.000000 0.000000
Ke 0.000000 0.000000 0.000000
Ni 1.000000
d 1.000000
illum 2

newmtl natureKit-leavesGreen.1303
Ns 96.078431
Ka 0.000000 0.000000 0.000000
Kd 0.352941 0.768628 0.713726
Ks 0.000000 0.000000 0.000000
Ke 0.000000 0.000000 0.000000
Ni 1.000000
d 1.000000
illum 2

newmtl natureKit-leavesGreen.1304
Ns 96.078431
Ka 0.000000 0.000000 0.000000
Kd 0.352941 0.768628 0.713726
Ks 0.000000 0.000000 0.000000
Ke 0.000000 0.000000 0.000000
Ni 1.000000
d 1.000000
illum 2

newmtl natureKit-leavesGreen.1305
Ns 96.078431
Ka 0.000000 0.000000 0.000000
Kd 0.352941 0.768628 0.713726
Ks 0.000000 0.000000 0.000000
Ke 0.000000 0.000000 0.000000
Ni 1.000000
d 1.000000
illum 2

newmtl natureKit-leavesGreen.1306
Ns 96.078431
Ka 0.000000 0.000000 0.000000
Kd 0.352941 0.768628 0.713726
Ks 0.000000 0.000000 0.000000
Ke 0.000000 0.000000 0.000000
Ni 1.000000
d 1.000000
illum 2

newmtl natureKit-leavesGreen.1307
Ns 96.078431
Ka 0.000000 0.000000 0.000000
Kd 0.352941 0.768628 0.713726
Ks 0.000000 0.000000 0.000000
Ke 0.000000 0.000000 0.000000
Ni 1.000000
d 1.000000
illum 2

newmtl natureKit-leavesGreen.1308
Ns 96.078431
Ka 0.000000 0.000000 0.000000
Kd 0.352941 0.768628 0.713726
Ks 0.000000 0.000000 0.000000
Ke 0.000000 0.000000 0.000000
Ni 1.000000
d 1.000000
illum 2

newmtl natureKit-leavesGreen.1309
Ns 96.078431
Ka 0.000000 0.000000 0.000000
Kd 0.352941 0.768628 0.713726
Ks 0.000000 0.000000 0.000000
Ke 0.000000 0.000000 0.000000
Ni 1.000000
d 1.000000
illum 2

newmtl natureKit-leavesGreen.1310
Ns 96.078431
Ka 0.000000 0.000000 0.000000
Kd 0.352941 0.768628 0.713726
Ks 0.000000 0.000000 0.000000
Ke 0.000000 0.000000 0.000000
Ni 1.000000
d 1.000000
illum 2

newmtl natureKit-leavesGreen.1311
Ns 96.078431
Ka 0.000000 0.000000 0.000000
Kd 0.352941 0.768628 0.713726
Ks 0.000000 0.000000 0.000000
Ke 0.000000 0.000000 0.000000
Ni 1.000000
d 1.000000
illum 2

newmtl natureKit-mushroom.132
Ns 96.078431
Ka 0.000000 0.000000 0.000000
Kd 0.878431 0.290196 0.313726
Ks 0.000000 0.000000 0.000000
Ke 0.000000 0.000000 0.000000
Ni 1.000000
d 1.000000
illum 2

newmtl natureKit-mushroom.133
Ns 96.078431
Ka 0.000000 0.000000 0.000000
Kd 0.878431 0.290196 0.313726
Ks 0.000000 0.000000 0.000000
Ke 0.000000 0.000000 0.000000
Ni 1.000000
d 1.000000
illum 2

newmtl natureKit-mushroom.134
Ns 96.078431
Ka 0.000000 0.000000 0.000000
Kd 0.878431 0.290196 0.313726
Ks 0.000000 0.000000 0.000000
Ke 0.000000 0.000000 0.000000
Ni 1.000000
d 1.000000
illum 2

newmtl natureKit-mushroom.135
Ns 96.078431
Ka 0.000000 0.000000 0.000000
Kd 0.878431 0.290196 0.313726
Ks 0.000000 0.000000 0.000000
Ke 0.000000 0.000000 0.000000
Ni 1.000000
d 1.000000
illum 2

newmtl natureKit-mushroom.136
Ns 96.078431
Ka 0.000000 0.000000 0.000000
Kd 0.878431 0.290196 0.313726
Ks 0.000000 0.000000 0.000000
Ke 0.000000 0.000000 0.000000
Ni 1.000000
d 1.000000
illum 2

newmtl natureKit-mushroom.137
Ns 96.078431
Ka 0.000000 0.000000 0.000000
Kd 0.878431 0.290196 0.313726
Ks 0.000000 0.000000 0.000000
Ke 0.000000 0.000000 0.000000
Ni 1.000000
d 1.000000
illum 2

newmtl natureKit-mushroom.138
Ns 96.078431
Ka 0.000000 0.000000 0.000000
Kd 0.878431 0.290196 0.313726
Ks 0.000000 0.000000 0.000000
Ke 0.000000 0.000000 0.000000
Ni 1.000000
d 1.000000
illum 2

newmtl natureKit-mushroom.139
Ns 96.078431
Ka 0.000000 0.000000 0.000000
Kd 0.878431 0.290196 0.313726
Ks 0.000000 0.000000 0.000000
Ke 0.000000 0.000000 0.000000
Ni 1.000000
d 1.000000
illum 2

newmtl natureKit-mushroom.140
Ns 96.078431
Ka 0.000000 0.000000 0.000000
Kd 0.878431 0.290196 0.313726
Ks 0.000000 0.000000 0.000000
Ke 0.000000 0.000000 0.000000
Ni 1.000000
d 1.000000
illum 2

newmtl natureKit-mushroom.141
Ns 96.078431
Ka 0.000000 0.000000 0.000000
Kd 0.878431 0.290196 0.313726
Ks 0.000000 0.000000 0.000000
Ke 0.000000 0.000000 0.000000
Ni 1.000000
d 1.000000
illum 2

newmtl natureKit-mushroom.142
Ns 96.078431
Ka 0.000000 0.000000 0.000000
Kd 0.878431 0.290196 0.313726
Ks 0.000000 0.000000 0.000000
Ke 0.000000 0.000000 0.000000
Ni 1.000000
d 1.000000
illum 2

newmtl natureKit-mushroom.143
Ns 96.078431
Ka 0.000000 0.000000 0.000000
Kd 0.878431 0.290196 0.313726
Ks 0.000000 0.000000 0.000000
Ke 0.000000 0.000000 0.000000
Ni 1.000000
d 1.000000
illum 2

newmtl natureKit-mushroomDark.044
Ns 96.078431
Ka 0.000000 0.000000 0.000000
Kd 0.756863 0.211765 0.231373
Ks 0.000000 0.000000 0.000000
Ke 0.000000 0.000000 0.000000
Ni 1.000000
d 1.000000
illum 2

newmtl natureKit-mushroomDark.046
Ns 96.078431
Ka 0.000000 0.000000 0.000000
Kd 0.756863 0.211765 0.231373
Ks 0.000000 0.000000 0.000000
Ke 0.000000 0.000000 0.000000
Ni 1.000000
d 1.000000
illum 2

newmtl natureKit-stone.649
Ns 96.078431
Ka 0.000000 0.000000 0.000000
Kd 0.658823 0.807843 0.827451
Ks 0.000000 0.000000 0.000000
Ke 0.000000 0.000000 0.000000
Ni 1.000000
d 1.000000
illum 2

newmtl natureKit-stone.650
Ns 96.078431
Ka 0.000000 0.000000 0.000000
Kd 0.658823 0.807843 0.827451
Ks 0.000000 0.000000 0.000000
Ke 0.000000 0.000000 0.000000
Ni 1.000000
d 1.000000
illum 2

newmtl natureKit-stone.651
Ns 96.078431
Ka 0.000000 0.000000 0.000000
Kd 0.658823 0.807843 0.827451
Ks 0.000000 0.000000 0.000000
Ke 0.000000 0.000000 0.000000
Ni 1.000000
d 1.000000
illum 2

newmtl natureKit-stone.652
Ns 96.078431
Ka 0.000000 0.000000 0.000000
Kd 0.658823 0.807843 0.827451
Ks 0.000000 0.000000 0.000000
Ke 0.000000 0.000000 0.000000
Ni 1.000000
d 1.000000
illum 2

newmtl natureKit-stone.653
Ns 96.078431
Ka 0.000000 0.000000 0.000000
Kd 0.658823 0.807843 0.827451
Ks 0.000000 0.000000 0.000000
Ke 0.000000 0.000000 0.000000
Ni 1.000000
d 1.000000
illum 2

newmtl natureKit-stone.654
Ns 96.078431
Ka 0.000000 0.000000 0.000000
Kd 0.658823 0.807843 0.827451
Ks 0.000000 0.000000 0.000000
Ke 0.000000 0.000000 0.000000
Ni 1.000000
d 1.000000
illum 2

newmtl natureKit-stone.655
Ns 96.078431
Ka 0.000000 0.000000 0.000000
Kd 0.658823 0.807843 0.827451
Ks 0.000000 0.000000 0.000000
Ke 0.000000 0.000000 0.000000
Ni 1.000000
d 1.000000
illum 2

newmtl natureKit-stone.656
Ns 96.078431
Ka 0.000000 0.000000 0.000000
Kd 0.658823 0.807843 0.827451
Ks 0.000000 0.000000 0.000000
Ke 0.000000 0.000000 0.000000
Ni 1.000000
d 1.000000
illum 2

newmtl natureKit-stone.657
Ns 96.078431
Ka 0.000000 0.000000 0.000000
Kd 0.658823 0.807843 0.827451
Ks 0.000000 0.000000 0.000000
Ke 0.000000 0.000000 0.000000
Ni 1.000000
d 1.000000
illum 2

newmtl natureKit-stone.658
Ns 96.078431
Ka 0.000000 0.000000 0.000000
Kd 0.658823 0.807843 0.827451
Ks 0.000000 0.000000 0.000000
Ke 0.000000 0.000000 0.000000
Ni 1.000000
d 1.000000
illum 2

newmtl natureKit-stone.659
Ns 96.078431
Ka 0.000000 0.000000 0.000000
Kd 0.658823 0.807843 0.827451
Ks 0.000000 0.000000 0.000000
Ke 0.000000 0.000000 0.000000
Ni 1.000000
d 1.000000
illum 2

newmtl natureKit-stone.660
Ns 96.078431
Ka 0.000000 0.000000 0.000000
Kd 0.658823 0.807843 0.827451
Ks 0.000000 0.000000 0.000000
Ke 0.000000 0.000000 0.000000
Ni 1.000000
d 1.000000
illum 2

newmtl natureKit-stone.661
Ns 96.078431
Ka 0.000000 0.000000 0.000000
Kd 0.658823 0.807843 0.827451
Ks 0.000000 0.000000 0.000000
Ke 0.000000 0.000000 0.000000
Ni 1.000000
d 1.000000
illum 2

newmtl natureKit-stone.662
Ns 96.078431
Ka 0.000000 0.000000 0.000000
Kd 0.658823 0.807843 0.827451
Ks 0.000000 0.000000 0.000000
Ke 0.000000 0.000000 0.000000
Ni 1.000000
d 1.000000
illum 2

newmtl natureKit-stone.663
Ns 96.078431
Ka 0.000000 0.000000 0.000000
Kd 0.658823 0.807843 0.827451
Ks 0.000000 0.000000 0.000000
Ke 0.000000 0.000000 0.000000
Ni 1.000000
d 1.000000
illum 2

newmtl natureKit-stone.665
Ns 96.078431
Ka 0.000000 0.000000 0.000000
Kd 0.658823 0.807843 0.827451
Ks 0.000000 0.000000 0.000000
Ke 0.000000 0.000000 0.000000
Ni 1.000000
d 1.000000
illum 2

newmtl natureKit-stone.666
Ns 96.078431
Ka 0.000000 0.000000 0.000000
Kd 0.658823 0.807843 0.827451
Ks 0.000000 0.000000 0.000000
Ke 0.000000 0.000000 0.000000
Ni 1.000000
d 1.000000
illum 2

newmtl natureKit-stone.668
Ns 96.078431
Ka 0.000000 0.000000 0.000000
Kd 0.658823 0.807843 0.827451
Ks 0.000000 0.000000 0.000000
Ke 0.000000 0.000000 0.000000
Ni 1.000000
d 1.000000
illum 2

newmtl natureKit-stone.669
Ns 96.078431
Ka 0.000000 0.000000 0.000000
Kd 0.658823 0.807843 0.827451
Ks 0.000000 0.000000 0.000000
Ke 0.000000 0.000000 0.000000
Ni 1.000000
d 1.000000
illum 2

newmtl natureKit-stone.671
Ns 96.078431
Ka 0.000000 0.000000 0.000000
Kd 0.658823 0.807843 0.827451
Ks 0.000000 0.000000 0.000000
Ke 0.000000 0.000000 0.000000
Ni 1.000000
d 1.000000
illum 2

newmtl natureKit-stone.672
Ns 96.078431
Ka 0.000000 0.000000 0.000000
Kd 0.658823 0.807843 0.827451
Ks 0.000000 0.000000 0.000000
Ke 0.000000 0.000000 0.000000
Ni 1.000000
d 1.000000
illum 2

newmtl natureKit-stone.673
Ns 96.078431
Ka 0.000000 0.000000 0.000000
Kd 0.658823 0.807843 0.827451
Ks 0.000000 0.000000 0.000000
Ke 0.000000 0.000000 0.000000
Ni 1.000000
d 1.000000
illum 2

newmtl natureKit-stone.674
Ns 96.078431
Ka 0.000000 0.000000 0.000000
Kd 0.658823 0.807843 0.827451
Ks 0.000000 0.000000 0.000000
Ke 0.000000 0.000000 0.000000
Ni 1.000000
d 1.000000
illum 2

newmtl natureKit-stone.675
Ns 96.078431
Ka 0.000000 0.000000 0.000000
Kd 0.658823 0.807843 0.827451
Ks 0.000000 0.000000 0.000000
Ke 0.000000 0.000000 0.000000
Ni 1.000000
d 1.000000
illum 2

newmtl natureKit-stone.676
Ns 96.078431
Ka 0.000000 0.000000 0.000000
Kd 0.658823 0.807843 0.827451
Ks 0.000000 0.000000 0.000000
Ke 0.000000 0.000000 0.000000
Ni 1.000000
d 1.000000
illum 2

newmtl natureKit-stone.677
Ns 96.078431
Ka 0.000000 0.000000 0.000000
Kd 0.658823 0.807843 0.827451
Ks 0.000000 0.000000 0.000000
Ke 0.000000 0.000000 0.000000
Ni 1.000000
d 1.000000
illum 2

newmtl natureKit-stone.678
Ns 96.078431
Ka 0.000000 0.000000 0.000000
Kd 0.658823 0.807843 0.827451
Ks 0.000000 0.000000 0.000000
Ke 0.000000 0.000000 0.000000
Ni 1.000000
d 1.000000
illum 2

newmtl natureKit-stone.679
Ns 96.078431
Ka 0.000000 0.000000 0.000000
Kd 0.658823 0.807843 0.827451
Ks 0.000000 0.000000 0.000000
Ke 0.000000 0.000000 0.000000
Ni 1.000000
d 1.000000
illum 2

newmtl natureKit-stone.680
Ns 96.078431
Ka 0.000000 0.000000 0.000000
Kd 0.658823 0.807843 0.827451
Ks 0.000000 0.000000 0.000000
Ke 0.000000 0.000000 0.000000
Ni 1.000000
d 1.000000
illum 2

newmtl natureKit-stone.681
Ns 96.078431
Ka 0.000000 0.000000 0.000000
Kd 0.658823 0.807843 0.827451
Ks 0.000000 0.000000 0.000000
Ke 0.000000 0.000000 0.000000
Ni 1.000000
d 1.000000
illum 2

newmtl natureKit-stone.682
Ns 96.078431
Ka 0.000000 0.000000 0.000000
Kd 0.658823 0.807843 0.827451
Ks 0.000000 0.000000 0.000000
Ke 0.000000 0.000000 0.000000
Ni 1.000000
d 1.000000
illum 2

newmtl natureKit-stone.683
Ns 96.078431
Ka 0.000000 0.000000 0.000000
Kd 0.658823 0.807843 0.827451
Ks 0.000000 0.000000 0.000000
Ke 0.000000 0.000000 0.000000
Ni 1.000000
d 1.000000
illum 2

newmtl natureKit-stone.684
Ns 96.078431
Ka 0.000000 0.000000 0.000000
Kd 0.658823 0.807843 0.827451
Ks 0.000000 0.000000 0.000000
Ke 0.000000 0.000000 0.000000
Ni 1.000000
d 1.000000
illum 2

newmtl natureKit-stone.685
Ns 96.078431
Ka 0.000000 0.000000 0.000000
Kd 0.658823 0.807843 0.827451
Ks 0.000000 0.000000 0.000000
Ke 0.000000 0.000000 0.000000
Ni 1.000000
d 1.000000
illum 2

newmtl natureKit-stone.686
Ns 96.078431
Ka 0.000000 0.000000 0.000000
Kd 0.658823 0.807843 0.827451
Ks 0.000000 0.000000 0.000000
Ke 0.000000 0.000000 0.000000
Ni 1.000000
d 1.000000
illum 2

newmtl natureKit-stone.687
Ns 96.078431
Ka 0.000000 0.000000 0.000000
Kd 0.658823 0.807843 0.827451
Ks 0.000000 0.000000 0.000000
Ke 0.000000 0.000000 0.000000
Ni 1.000000
d 1.000000
illum 2

newmtl natureKit-stone.688
Ns 96.078431
Ka 0.000000 0.000000 0.000000
Kd 0.658823 0.807843 0.827451
Ks 0.000000 0.000000 0.000000
Ke 0.000000 0.000000 0.000000
Ni 1.000000
d 1.000000
illum 2

newmtl natureKit-stone.689
Ns 96.078431
Ka 0.000000 0.000000 0.000000
Kd 0.658823 0.807843 0.827451
Ks 0.000000 0.000000 0.000000
Ke 0.000000 0.000000 0.000000
Ni 1.000000
d 1.000000
illum 2

newmtl natureKit-stone.690
Ns 96.078431
Ka 0.000000 0.000000 0.000000
Kd 0.658823 0.807843 0.827451
Ks 0.000000 0.000000 0.000000
Ke 0.000000 0.000000 0.000000
Ni 1.000000
d 1.000000
illum 2

newmtl natureKit-stone.691
Ns 96.078431
Ka 0.000000 0.000000 0.000000
Kd 0.658823 0.807843 0.827451
Ks 0.000000 0.000000 0.000000
Ke 0.000000 0.000000 0.000000
Ni 1.000000
d 1.000000
illum 2

newmtl natureKit-stone.692
Ns 96.078431
Ka 0.000000 0.000000 0.000000
Kd 0.658823 0.807843 0.827451
Ks 0.000000 0.000000 0.000000
Ke 0.000000 0.000000 0.000000
Ni 1.000000
d 1.000000
illum 2

newmtl natureKit-stone.693
Ns 96.078431
Ka 0.000000 0.000000 0.000000
Kd 0.658823 0.807843 0.827451
Ks 0.000000 0.000000 0.000000
Ke 0.000000 0.000000 0.000000
Ni 1.000000
d 1.000000
illum 2

newmtl natureKit-stone.694
Ns 96.078431
Ka 0.000000 0.000000 0.000000
Kd 0.658823 0.807843 0.827451
Ks 0.000000 0.000000 0.000000
Ke 0.000000 0.000000 0.000000
Ni 1.000000
d 1.000000
illum 2

newmtl natureKit-stone.695
Ns 96.078431
Ka 0.000000 0.000000 0.000000
Kd 0.658823 0.807843 0.827451
Ks 0.000000 0.000000 0.000000
Ke 0.000000 0.000000 0.000000
Ni 1.000000
d 1.000000
illum 2

newmtl natureKit-stone.696
Ns 96.078431
Ka 0.000000 0.000000 0.000000
Kd 0.658823 0.807843 0.827451
Ks 0.000000 0.000000 0.000000
Ke 0.000000 0.000000 0.000000
Ni 1.000000
d 1.000000
illum 2

newmtl natureKit-stone.697
Ns 96.078431
Ka 0.000000 0.000000 0.000000
Kd 0.658823 0.807843 0.827451
Ks 0.000000 0.000000 0.000000
Ke 0.000000 0.000000 0.000000
Ni 1.000000
d 1.000000
illum 2

newmtl natureKit-stone.698
Ns 96.078431
Ka 0.000000 0.000000 0.000000
Kd 0.658823 0.807843 0.827451
Ks 0.000000 0.000000 0.000000
Ke 0.000000 0.000000 0.000000
Ni 1.000000
d 1.000000
illum 2

newmtl natureKit-stone.699
Ns 96.078431
Ka 0.000000 0.000000 0.000000
Kd 0.658823 0.807843 0.827451
Ks 0.000000 0.000000 0.000000
Ke 0.000000 0.000000 0.000000
Ni 1.000000
d 1.000000
illum 2

newmtl natureKit-stone.700
Ns 96.078431
Ka 0.000000 0.000000 0.000000
Kd 0.658823 0.807843 0.827451
Ks 0.000000 0.000000 0.000000
Ke 0.000000 0.000000 0.000000
Ni 1.000000
d 1.000000
illum 2

newmtl natureKit-stone.701
Ns 96.078431
Ka 0.000000 0.000000 0.000000
Kd 0.658823 0.807843 0.827451
Ks 0.000000 0.000000 0.000000
Ke 0.000000 0.000000 0.000000
Ni 1.000000
d 1.000000
illum 2

newmtl natureKit-stone.702
Ns 96.078431
Ka 0.000000 0.000000 0.000000
Kd 0.658823 0.807843 0.827451
Ks 0.000000 0.000000 0.000000
Ke 0.000000 0.000000 0.000000
Ni 1.000000
d 1.000000
illum 2

newmtl natureKit-stone.703
Ns 96.078431
Ka 0.000000 0.000000 0.000000
Kd 0.658823 0.807843 0.827451
Ks 0.000000 0.000000 0.000000
Ke 0.000000 0.000000 0.000000
Ni 1.000000
d 1.000000
illum 2

newmtl natureKit-stone.704
Ns 96.078431
Ka 0.000000 0.000000 0.000000
Kd 0.658823 0.807843 0.827451
Ks 0.000000 0.000000 0.000000
Ke 0.000000 0.000000 0.000000
Ni 1.000000
d 1.000000
illum 2

newmtl natureKit-stone.705
Ns 96.078431
Ka 0.000000 0.000000 0.000000
Kd 0.658823 0.807843 0.827451
Ks 0.000000 0.000000 0.000000
Ke 0.000000 0.000000 0.000000
Ni 1.000000
d 1.000000
illum 2

newmtl natureKit-stone.706
Ns 96.078431
Ka 0.000000 0.000000 0.000000
Kd 0.658823 0.807843 0.827451
Ks 0.000000 0.000000 0.000000
Ke 0.000000 0.000000 0.000000
Ni 1.000000
d 1.000000
illum 2

newmtl natureKit-stone.707
Ns 96.078431
Ka 0.000000 0.000000 0.000000
Kd 0.658823 0.807843 0.827451
Ks 0.000000 0.000000 0.000000
Ke 0.000000 0.000000 0.000000
Ni 1.000000
d 1.000000
illum 2

newmtl natureKit-water.231
Ns 96.078431
Ka 0.000000 0.000000 0.000000
Kd 0.691176 0.957888 1.000000
Ks 0.000000 0.000000 0.000000
Ke 0.000000 0.000000 0.000000
Ni 1.000000
d 1.000000
illum 2

newmtl natureKit-water.232
Ns 96.078431
Ka 0.000000 0.000000 0.000000
Kd 0.691176 0.957888 1.000000
Ks 0.000000 0.000000 0.000000
Ke 0.000000 0.000000 0.000000
Ni 1.000000
d 1.000000
illum 2

newmtl natureKit-water.233
Ns 96.078431
Ka 0.000000 0.000000 0.000000
Kd 0.691176 0.957888 1.000000
Ks 0.000000 0.000000 0.000000
Ke 0.000000 0.000000 0.000000
Ni 1.000000
d 1.000000
illum 2

newmtl natureKit-water.234
Ns 96.078431
Ka 0.000000 0.000000 0.000000
Kd 0.691176 0.957888 1.000000
Ks 0.000000 0.000000 0.000000
Ke 0.000000 0.000000 0.000000
Ni 1.000000
d 1.000000
illum 2

newmtl natureKit-water.235
Ns 96.078431
Ka 0.000000 0.000000 0.000000
Kd 0.691176 0.957888 1.000000
Ks 0.000000 0.000000 0.000000
Ke 0.000000 0.000000 0.000000
Ni 1.000000
d 1.000000
illum 2

newmtl natureKit-water.236
Ns 96.078431
Ka 0.000000 0.000000 0.000000
Kd 0.691176 0.957888 1.000000
Ks 0.000000 0.000000 0.000000
Ke 0.000000 0.000000 0.000000
Ni 1.000000
d 1.000000
illum 2

newmtl natureKit-water.237
Ns 96.078431
Ka 0.000000 0.000000 0.000000
Kd 0.691176 0.957888 1.000000
Ks 0.000000 0.000000 0.000000
Ke 0.000000 0.000000 0.000000
Ni 1.000000
d 1.000000
illum 2

newmtl natureKit-water.238
Ns 96.078431
Ka 0.000000 0.000000 0.000000
Kd 0.691176 0.957888 1.000000
Ks 0.000000 0.000000 0.000000
Ke 0.000000 0.000000 0.000000
Ni 1.000000
d 1.000000
illum 2

newmtl natureKit-water.239
Ns 96.078431
Ka 0.000000 0.000000 0.000000
Kd 0.691176 0.957888 1.000000
Ks 0.000000 0.000000 0.000000
Ke 0.000000 0.000000 0.000000
Ni 1.000000
d 1.000000
illum 2

newmtl natureKit-water.240
Ns 96.078431
Ka 0.000000 0.000000 0.000000
Kd 0.691176 0.957888 1.000000
Ks 0.000000 0.000000 0.000000
Ke 0.000000 0.000000 0.000000
Ni 1.000000
d 1.000000
illum 2

newmtl natureKit-water.241
Ns 96.078431
Ka 0.000000 0.000000 0.000000
Kd 0.691176 0.957888 1.000000
Ks 0.000000 0.000000 0.000000
Ke 0.000000 0.000000 0.000000
Ni 1.000000
d 1.000000
illum 2

newmtl natureKit-water.242
Ns 96.078431
Ka 0.000000 0.000000 0.000000
Kd 0.691176 0.957888 1.000000
Ks 0.000000 0.000000 0.000000
Ke 0.000000 0.000000 0.000000
Ni 1.000000
d 1.000000
illum 2

newmtl natureKit-water.243
Ns 96.078431
Ka 0.000000 0.000000 0.000000
Kd 0.691176 0.957888 1.000000
Ks 0.000000 0.000000 0.000000
Ke 0.000000 0.000000 0.000000
Ni 1.000000
d 1.000000
illum 2

newmtl natureKit-water.244
Ns 96.078431
Ka 0.000000 0.000000 0.000000
Kd 0.691176 0.957888 1.000000
Ks 0.000000 0.000000 0.000000
Ke 0.000000 0.000000 0.000000
Ni 1.000000
d 1.000000
illum 2

newmtl natureKit-water.246
Ns 96.078431
Ka 0.000000 0.000000 0.000000
Kd 0.691176 0.957888 1.000000
Ks 0.000000 0.000000 0.000000
Ke 0.000000 0.000000 0.000000
Ni 1.000000
d 1.000000
illum 2

newmtl natureKit-water.247
Ns 96.078431
Ka 0.000000 0.000000 0.000000
Kd 0.691176 0.957888 1.000000
Ks 0.000000 0.000000 0.000000
Ke 0.000000 0.000000 0.000000
Ni 1.000000
d 1.000000
illum 2

newmtl natureKit-water.248
Ns 96.078431
Ka 0.000000 0.000000 0.000000
Kd 0.691176 0.957888 1.000000
Ks 0.000000 0.000000 0.000000
Ke 0.000000 0.000000 0.000000
Ni 1.000000
d 1.000000
illum 2

newmtl natureKit-water.250
Ns 96.078431
Ka 0.000000 0.000000 0.000000
Kd 0.691176 0.957888 1.000000
Ks 0.000000 0.000000 0.000000
Ke 0.000000 0.000000 0.000000
Ni 1.000000
d 1.000000
illum 2

newmtl natureKit-water.251
Ns 96.078431
Ka 0.000000 0.000000 0.000000
Kd 0.691176 0.957888 1.000000
Ks 0.000000 0.000000 0.000000
Ke 0.000000 0.000000 0.000000
Ni 1.000000
d 1.000000
illum 2

newmtl natureKit-wood.1628
Ns 96.078431
Ka 0.000000 0.000000 0.000000
Kd 1.000000 0.682353 0.435294
Ks 0.000000 0.000000 0.000000
Ke 0.000000 0.000000 0.000000
Ni 1.000000
d 1.000000
illum 2

newmtl natureKit-wood.1629
Ns 96.078431
Ka 0.000000 0.000000 0.000000
Kd 1.000000 0.682353 0.435294
Ks 0.000000 0.000000 0.000000
Ke 0.000000 0.000000 0.000000
Ni 1.000000
d 1.000000
illum 2

newmtl natureKit-wood.1630
Ns 96.078431
Ka 0.000000 0.000000 0.000000
Kd 1.000000 0.682353 0.435294
Ks 0.000000 0.000000 0.000000
Ke 0.000000 0.000000 0.000000
Ni 1.000000
d 1.000000
illum 2

newmtl natureKit-wood.1631
Ns 96.078431
Ka 0.000000 0.000000 0.000000
Kd 1.000000 0.682353 0.435294
Ks 0.000000 0.000000 0.000000
Ke 0.000000 0.000000 0.000000
Ni 1.000000
d 1.000000
illum 2

newmtl natureKit-wood.1632
Ns 96.078431
Ka 0.000000 0.000000 0.000000
Kd 1.000000 0.682353 0.435294
Ks 0.000000 0.000000 0.000000
Ke 0.000000 0.000000 0.000000
Ni 1.000000
d 1.000000
illum 2

newmtl natureKit-wood.1633
Ns 96.078431
Ka 0.000000 0.000000 0.000000
Kd 1.000000 0.682353 0.435294
Ks 0.000000 0.000000 0.000000
Ke 0.000000 0.000000 0.000000
Ni 1.000000
d 1.000000
illum 2

newmtl natureKit-wood.1634
Ns 96.078431
Ka 0.000000 0.000000 0.000000
Kd 1.000000 0.682353 0.435294
Ks 0.000000 0.000000 0.000000
Ke 0.000000 0.000000 0.000000
Ni 1.000000
d 1.000000
illum 2

newmtl natureKit-wood.1635
Ns 96.078431
Ka 0.000000 0.000000 0.000000
Kd 1.000000 0.682353 0.435294
Ks 0.000000 0.000000 0.000000
Ke 0.000000 0.000000 0.000000
Ni 1.000000
d 1.000000
illum 2

newmtl natureKit-wood.1636
Ns 96.078431
Ka 0.000000 0.000000 0.000000
Kd 1.000000 0.682353 0.435294
Ks 0.000000 0.000000 0.000000
Ke 0.000000 0.000000 0.000000
Ni 1.000000
d 1.000000
illum 2

newmtl natureKit-wood.1637
Ns 96.078431
Ka 0.000000 0.000000 0.000000
Kd 1.000000 0.682353 0.435294
Ks 0.000000 0.000000 0.000000
Ke 0.000000 0.000000 0.000000
Ni 1.000000
d 1.000000
illum 2

newmtl natureKit-wood.1638
Ns 96.078431
Ka 0.000000 0.000000 0.000000
Kd 1.000000 0.682353 0.435294
Ks 0.000000 0.000000 0.000000
Ke 0.000000 0.000000 0.000000
Ni 1.000000
d 1.000000
illum 2

newmtl natureKit-wood.1639
Ns 96.078431
Ka 0.000000 0.000000 0.000000
Kd 1.000000 0.682353 0.435294
Ks 0.000000 0.000000 0.000000
Ke 0.000000 0.000000 0.000000
Ni 1.000000
d 1.000000
illum 2

newmtl natureKit-wood.1640
Ns 96.078431
Ka 0.000000 0.000000 0.000000
Kd 1.000000 0.682353 0.435294
Ks 0.000000 0.000000 0.000000
Ke 0.000000 0.000000 0.000000
Ni 1.000000
d 1.000000
illum 2

newmtl natureKit-wood.1641
Ns 96.078431
Ka 0.000000 0.000000 0.000000
Kd 1.000000 0.682353 0.435294
Ks 0.000000 0.000000 0.000000
Ke 0.000000 0.000000 0.000000
Ni 1.000000
d 1.000000
illum 2

newmtl natureKit-wood.1642
Ns 96.078431
Ka 0.000000 0.000000 0.000000
Kd 1.000000 0.682353 0.435294
Ks 0.000000 0.000000 0.000000
Ke 0.000000 0.000000 0.000000
Ni 1.000000
d 1.000000
illum 2

newmtl natureKit-wood.1643
Ns 96.078431
Ka 0.000000 0.000000 0.000000
Kd 1.000000 0.682353 0.435294
Ks 0.000000 0.000000 0.000000
Ke 0.000000 0.000000 0.000000
Ni 1.000000
d 1.000000
illum 2

newmtl natureKit-wood.1644
Ns 96.078431
Ka 0.000000 0.000000 0.000000
Kd 1.000000 0.682353 0.435294
Ks 0.000000 0.000000 0.000000
Ke 0.000000 0.000000 0.000000
Ni 1.000000
d 1.000000
illum 2

newmtl natureKit-wood.1646
Ns 96.078431
Ka 0.000000 0.000000 0.000000
Kd 1.000000 0.682353 0.435294
Ks 0.000000 0.000000 0.000000
Ke 0.000000 0.000000 0.000000
Ni 1.000000
d 1.000000
illum 2

newmtl natureKit-wood.1647
Ns 96.078431
Ka 0.000000 0.000000 0.000000
Kd 1.000000 0.682353 0.435294
Ks 0.000000 0.000000 0.000000
Ke 0.000000 0.000000 0.000000
Ni 1.000000
d 1.000000
illum 2

newmtl natureKit-wood.1649
Ns 96.078431
Ka 0.000000 0.000000 0.000000
Kd 1.000000 0.682353 0.435294
Ks 0.000000 0.000000 0.000000
Ke 0.000000 0.000000 0.000000
Ni 1.000000
d 1.000000
illum 2

newmtl natureKit-wood.1650
Ns 96.078431
Ka 0.000000 0.000000 0.000000
Kd 1.000000 0.682353 0.435294
Ks 0.000000 0.000000 0.000000
Ke 0.000000 0.000000 0.000000
Ni 1.000000
d 1.000000
illum 2

newmtl natureKit-wood.1651
Ns 96.078431
Ka 0.000000 0.000000 0.000000
Kd 1.000000 0.682353 0.435294
Ks 0.000000 0.000000 0.000000
Ke 0.000000 0.000000 0.000000
Ni 1.000000
d 1.000000
illum 2

newmtl natureKit-wood.1653
Ns 96.078431
Ka 0.000000 0.000000 0.000000
Kd 1.000000 0.682353 0.435294
Ks 0.000000 0.000000 0.000000
Ke 0.000000 0.000000 0.000000
Ni 1.000000
d 1.000000
illum 2

newmtl natureKit-wood.1654
Ns 96.078431
Ka 0.000000 0.000000 0.000000
Kd 1.000000 0.682353 0.435294
Ks 0.000000 0.000000 0.000000
Ke 0.000000 0.000000 0.000000
Ni 1.000000
d 1.000000
illum 2

newmtl natureKit-wood.1655
Ns 96.078431
Ka 0.000000 0.000000 0.000000
Kd 1.000000 0.682353 0.435294
Ks 0.000000 0.000000 0.000000
Ke 0.000000 0.000000 0.000000
Ni 1.000000
d 1.000000
illum 2

newmtl natureKit-wood.1656
Ns 96.078431
Ka 0.000000 0.000000 0.000000
Kd 1.000000 0.682353 0.435294
Ks 0.000000 0.000000 0.000000
Ke 0.000000 0.000000 0.000000
Ni 1.000000
d 1.000000
illum 2

newmtl natureKit-wood.1657
Ns 96.078431
Ka 0.000000 0.000000 0.000000
Kd 1.000000 0.682353 0.435294
Ks 0.000000 0.000000 0.000000
Ke 0.000000 0.000000 0.000000
Ni 1.000000
d 1.000000
illum 2

newmtl natureKit-wood.1658
Ns 96.078431
Ka 0.000000 0.000000 0.000000
Kd 1.000000 0.682353 0.435294
Ks 0.000000 0.000000 0.000000
Ke 0.000000 0.000000 0.000000
Ni 1.000000
d 1.000000
illum 2

newmtl natureKit-wood.1659
Ns 96.078431
Ka 0.000000 0.000000 0.000000
Kd 1.000000 0.682353 0.435294
Ks 0.000000 0.000000 0.000000
Ke 0.000000 0.000000 0.000000
Ni 1.000000
d 1.000000
illum 2

newmtl natureKit-wood.1660
Ns 96.078431
Ka 0.000000 0.000000 0.000000
Kd 1.000000 0.682353 0.435294
Ks 0.000000 0.000000 0.000000
Ke 0.000000 0.000000 0.000000
Ni 1.000000
d 1.000000
illum 2

newmtl natureKit-wood.1661
Ns 96.078431
Ka 0.000000 0.000000 0.000000
Kd 1.000000 0.682353 0.435294
Ks 0.000000 0.000000 0.000000
Ke 0.000000 0.000000 0.000000
Ni 1.000000
d 1.000000
illum 2

newmtl natureKit-wood.1662
Ns 96.078431
Ka 0.000000 0.000000 0.000000
Kd 1.000000 0.682353 0.435294
Ks 0.000000 0.000000 0.000000
Ke 0.000000 0.000000 0.000000
Ni 1.000000
d 1.000000
illum 2

newmtl natureKit-wood.1663
Ns 96.078431
Ka 0.000000 0.000000 0.000000
Kd 1.000000 0.682353 0.435294
Ks 0.000000 0.000000 0.000000
Ke 0.000000 0.000000 0.000000
Ni 1.000000
d 1.000000
illum 2

newmtl natureKit-wood.1664
Ns 96.078431
Ka 0.000000 0.000000 0.000000
Kd 1.000000 0.682353 0.435294
Ks 0.000000 0.000000 0.000000
Ke 0.000000 0.000000 0.000000
Ni 1.000000
d 1.000000
illum 2

newmtl natureKit-wood.1665
Ns 96.078431
Ka 0.000000 0.000000 0.000000
Kd 1.000000 0.682353 0.435294
Ks 0.000000 0.000000 0.000000
Ke 0.000000 0.000000 0.000000
Ni 1.000000
d 1.000000
illum 2

newmtl natureKit-wood.1666
Ns 96.078431
Ka 0.000000 0.000000 0.000000
Kd 1.000000 0.682353 0.435294
Ks 0.000000 0.000000 0.000000
Ke 0.000000 0.000000 0.000000
Ni 1.000000
d 1.000000
illum 1

newmtl natureKit-wood.1667
Ns 96.078431
Ka 0.000000 0.000000 0.000000
Kd 1.000000 0.682353 0.435294
Ks 0.000000 0.000000 0.000000
Ke 0.000000 0.000000 0.000000
Ni 1.000000
d 1.000000
illum 2

newmtl natureKit-wood.1668
Ns 96.078431
Ka 0.000000 0.000000 0.000000
Kd 1.000000 0.682353 0.435294
Ks 0.000000 0.000000 0.000000
Ke 0.000000 0.000000 0.000000
Ni 1.000000
d 1.000000
illum 2

newmtl natureKit-wood.1669
Ns 96.078431
Ka 0.000000 0.000000 0.000000
Kd 1.000000 0.682353 0.435294
Ks 0.000000 0.000000 0.000000
Ke 0.000000 0.000000 0.000000
Ni 1.000000
d 1.000000
illum 2

newmtl natureKit-wood.1670
Ns 96.078431
Ka 0.000000 0.000000 0.000000
Kd 1.000000 0.682353 0.435294
Ks 0.000000 0.000000 0.000000
Ke 0.000000 0.000000 0.000000
Ni 1.000000
d 1.000000
illum 2

newmtl natureKit-wood.1671
Ns 96.078431
Ka 0.000000 0.000000 0.000000
Kd 1.000000 0.682353 0.435294
Ks 0.000000 0.000000 0.000000
Ke 0.000000 0.000000 0.000000
Ni 1.000000
d 1.000000
illum 2

newmtl natureKit-wood.1672
Ns 96.078431
Ka 0.000000 0.000000 0.000000
Kd 1.000000 0.682353 0.435294
Ks 0.000000 0.000000 0.000000
Ke 0.000000 0.000000 0.000000
Ni 1.000000
d 1.000000
illum 2

newmtl natureKit-wood.1673
Ns 96.078431
Ka 0.000000 0.000000 0.000000
Kd 1.000000 0.682353 0.435294
Ks 0.000000 0.000000 0.000000
Ke 0.000000 0.000000 0.000000
Ni 1.000000
d 1.000000
illum 2

newmtl natureKit-wood.1674
Ns 96.078431
Ka 0.000000 0.000000 0.000000
Kd 1.000000 0.682353 0.435294
Ks 0.000000 0.000000 0.000000
Ke 0.000000 0.000000 0.000000
Ni 1.000000
d 1.000000
illum 2

newmtl natureKit-wood.1675
Ns 96.078431
Ka 0.000000 0.000000 0.000000
Kd 1.000000 0.682353 0.435294
Ks 0.000000 0.000000 0.000000
Ke 0.000000 0.000000 0.000000
Ni 1.000000
d 1.000000
illum 2

newmtl natureKit-wood.1676
Ns 96.078431
Ka 0.000000 0.000000 0.000000
Kd 1.000000 0.682353 0.435294
Ks 0.000000 0.000000 0.000000
Ke 0.000000 0.000000 0.000000
Ni 1.000000
d 1.000000
illum 2

newmtl natureKit-wood.1677
Ns 96.078431
Ka 0.000000 0.000000 0.000000
Kd 1.000000 0.682353 0.435294
Ks 0.000000 0.000000 0.000000
Ke 0.000000 0.000000 0.000000
Ni 1.000000
d 1.000000
illum 2

newmtl natureKit-wood.1678
Ns 96.078431
Ka 0.000000 0.000000 0.000000
Kd 1.000000 0.682353 0.435294
Ks 0.000000 0.000000 0.000000
Ke 0.000000 0.000000 0.000000
Ni 1.000000
d 1.000000
illum 2

newmtl natureKit-wood.1679
Ns 96.078431
Ka 0.000000 0.000000 0.000000
Kd 1.000000 0.682353 0.435294
Ks 0.000000 0.000000 0.000000
Ke 0.000000 0.000000 0.000000
Ni 1.000000
d 1.000000
illum 2

newmtl natureKit-wood.1680
Ns 96.078431
Ka 0.000000 0.000000 0.000000
Kd 1.000000 0.682353 0.435294
Ks 0.000000 0.000000 0.000000
Ke 0.000000 0.000000 0.000000
Ni 1.000000
d 1.000000
illum 2

newmtl natureKit-wood.1681
Ns 96.078431
Ka 0.000000 0.000000 0.000000
Kd 1.000000 0.682353 0.435294
Ks 0.000000 0.000000 0.000000
Ke 0.000000 0.000000 0.000000
Ni 1.000000
d 1.000000
illum 2

newmtl natureKit-wood.1682
Ns 96.078431
Ka 0.000000 0.000000 0.000000
Kd 1.000000 0.682353 0.435294
Ks 0.000000 0.000000 0.000000
Ke 0.000000 0.000000 0.000000
Ni 1.000000
d 1.000000
illum 2

newmtl natureKit-wood.1683
Ns 96.078431
Ka 0.000000 0.000000 0.000000
Kd 1.000000 0.682353 0.435294
Ks 0.000000 0.000000 0.000000
Ke 0.000000 0.000000 0.000000
Ni 1.000000
d 1.000000
illum 2

newmtl natureKit-wood.1684
Ns 96.078431
Ka 0.000000 0.000000 0.000000
Kd 1.000000 0.682353 0.435294
Ks 0.000000 0.000000 0.000000
Ke 0.000000 0.000000 0.000000
Ni 1.000000
d 1.000000
illum 2

newmtl natureKit-wood.1685
Ns 96.078431
Ka 0.000000 0.000000 0.000000
Kd 1.000000 0.682353 0.435294
Ks 0.000000 0.000000 0.000000
Ke 0.000000 0.000000 0.000000
Ni 1.000000
d 1.000000
illum 2

newmtl natureKit-wood.1686
Ns 96.078431
Ka 0.000000 0.000000 0.000000
Kd 1.000000 0.682353 0.435294
Ks 0.000000 0.000000 0.000000
Ke 0.000000 0.000000 0.000000
Ni 1.000000
d 1.000000
illum 2

newmtl natureKit-wood.1687
Ns 96.078431
Ka 0.000000 0.000000 0.000000
Kd 1.000000 0.682353 0.435294
Ks 0.000000 0.000000 0.000000
Ke 0.000000 0.000000 0.000000
Ni 1.000000
d 1.000000
illum 2

newmtl natureKit-wood.1688
Ns 96.078431
Ka 0.000000 0.000000 0.000000
Kd 1.000000 0.682353 0.435294
Ks 0.000000 0.000000 0.000000
Ke 0.000000 0.000000 0.000000
Ni 1.000000
d 1.000000
illum 2

newmtl natureKit-wood.1689
Ns 96.078431
Ka 0.000000 0.000000 0.000000
Kd 1.000000 0.682353 0.435294
Ks 0.000000 0.000000 0.000000
Ke 0.000000 0.000000 0.000000
Ni 1.000000
d 1.000000
illum 2

newmtl natureKit-wood.1690
Ns 96.078431
Ka 0.000000 0.000000 0.000000
Kd 1.000000 0.682353 0.435294
Ks 0.000000 0.000000 0.000000
Ke 0.000000 0.000000 0.000000
Ni 1.000000
d 1.000000
illum 2

newmtl natureKit-wood.1691
Ns 96.078431
Ka 0.000000 0.000000 0.000000
Kd 1.000000 0.682353 0.435294
Ks 0.000000 0.000000 0.000000
Ke 0.000000 0.000000 0.000000
Ni 1.000000
d 1.000000
illum 2

newmtl natureKit-wood.1692
Ns 96.078431
Ka 0.000000 0.000000 0.000000
Kd 1.000000 0.682353 0.435294
Ks 0.000000 0.000000 0.000000
Ke 0.000000 0.000000 0.000000
Ni 1.000000
d 1.000000
illum 2

newmtl natureKit-wood.1693
Ns 96.078431
Ka 0.000000 0.000000 0.000000
Kd 1.000000 0.682353 0.435294
Ks 0.000000 0.000000 0.000000
Ke 0.000000 0.000000 0.000000
Ni 1.000000
d 1.000000
illum 2

newmtl natureKit-wood.1694
Ns 96.078431
Ka 0.000000 0.000000 0.000000
Kd 1.000000 0.682353 0.435294
Ks 0.000000 0.000000 0.000000
Ke 0.000000 0.000000 0.000000
Ni 1.000000
d 1.000000
illum 2

newmtl natureKit-wood.1695
Ns 96.078431
Ka 0.000000 0.000000 0.000000
Kd 1.000000 0.682353 0.435294
Ks 0.000000 0.000000 0.000000
Ke 0.000000 0.000000 0.000000
Ni 1.000000
d 1.000000
illum 2

newmtl natureKit-wood.1696
Ns 96.078431
Ka 0.000000 0.000000 0.000000
Kd 1.000000 0.682353 0.435294
Ks 0.000000 0.000000 0.000000
Ke 0.000000 0.000000 0.000000
Ni 1.000000
d 1.000000
illum 2

newmtl natureKit-wood.1697
Ns 96.078431
Ka 0.000000 0.000000 0.000000
Kd 1.000000 0.682353 0.435294
Ks 0.000000 0.000000 0.000000
Ke 0.000000 0.000000 0.000000
Ni 1.000000
d 1.000000
illum 2

newmtl natureKit-wood.1698
Ns 96.078431
Ka 0.000000 0.000000 0.000000
Kd 1.000000 0.682353 0.435294
Ks 0.000000 0.000000 0.000000
Ke 0.000000 0.000000 0.000000
Ni 1.000000
d 1.000000
illum 2

newmtl natureKit-wood.1699
Ns 96.078431
Ka 0.000000 0.000000 0.000000
Kd 1.000000 0.682353 0.435294
Ks 0.000000 0.000000 0.000000
Ke 0.000000 0.000000 0.000000
Ni 1.000000
d 1.000000
illum 2

newmtl natureKit-wood.1700
Ns 96.078431
Ka 0.000000 0.000000 0.000000
Kd 1.000000 0.682353 0.435294
Ks 0.000000 0.000000 0.000000
Ke 0.000000 0.000000 0.000000
Ni 1.000000
d 1.000000
illum 2

newmtl natureKit-wood.1701
Ns 96.078431
Ka 0.000000 0.000000 0.000000
Kd 1.000000 0.682353 0.435294
Ks 0.000000 0.000000 0.000000
Ke 0.000000 0.000000 0.000000
Ni 1.000000
d 1.000000
illum 2

newmtl natureKit-wood.1702
Ns 96.078431
Ka 0.000000 0.000000 0.000000
Kd 1.000000 0.682353 0.435294
Ks 0.000000 0.000000 0.000000
Ke 0.000000 0.000000 0.000000
Ni 1.000000
d 1.000000
illum 2

newmtl natureKit-wood.1703
Ns 96.078431
Ka 0.000000 0.000000 0.000000
Kd 1.000000 0.682353 0.435294
Ks 0.000000 0.000000 0.000000
Ke 0.000000 0.000000 0.000000
Ni 1.000000
d 1.000000
illum 2

newmtl natureKit-wood.1704
Ns 96.078431
Ka 0.000000 0.000000 0.000000
Kd 1.000000 0.682353 0.435294
Ks 0.000000 0.000000 0.000000
Ke 0.000000 0.000000 0.000000
Ni 1.000000
d 1.000000
illum 2

newmtl natureKit-wood.1705
Ns 96.078431
Ka 0.000000 0.000000 0.000000
Kd 1.000000 0.682353 0.435294
Ks 0.000000 0.000000 0.000000
Ke 0.000000 0.000000 0.000000
Ni 1.000000
d 1.000000
illum 2

newmtl natureKit-wood.1706
Ns 96.078431
Ka 0.000000 0.000000 0.000000
Kd 1.000000 0.682353 0.435294
Ks 0.000000 0.000000 0.000000
Ke 0.000000 0.000000 0.000000
Ni 1.000000
d 1.000000
illum 2

newmtl natureKit-wood.1707
Ns 96.078431
Ka 0.000000 0.000000 0.000000
Kd 1.000000 0.682353 0.435294
Ks 0.000000 0.000000 0.000000
Ke 0.000000 0.000000 0.000000
Ni 1.000000
d 1.000000
illum 2

newmtl natureKit-wood.1708
Ns 96.078431
Ka 0.000000 0.000000 0.000000
Kd 1.000000 0.682353 0.435294
Ks 0.000000 0.000000 0.000000
Ke 0.000000 0.000000 0.000000
Ni 1.000000
d 1.000000
illum 2

newmtl natureKit-wood.1709
Ns 96.078431
Ka 0.000000 0.000000 0.000000
Kd 1.000000 0.682353 0.435294
Ks 0.000000 0.000000 0.000000
Ke 0.000000 0.000000 0.000000
Ni 1.000000
d 1.000000
illum 2

newmtl natureKit-wood.1710
Ns 96.078431
Ka 0.000000 0.000000 0.000000
Kd 1.000000 0.682353 0.435294
Ks 0.000000 0.000000 0.000000
Ke 0.000000 0.000000 0.000000
Ni 1.000000
d 1.000000
illum 2

newmtl natureKit-wood.1711
Ns 96.078431
Ka 0.000000 0.000000 0.000000
Kd 1.000000 0.682353 0.435294
Ks 0.000000 0.000000 0.000000
Ke 0.000000 0.000000 0.000000
Ni 1.000000
d 1.000000
illum 2

newmtl natureKit-wood.1712
Ns 96.078431
Ka 0.000000 0.000000 0.000000
Kd 1.000000 0.682353 0.435294
Ks 0.000000 0.000000 0.000000
Ke 0.000000 0.000000 0.000000
Ni 1.000000
d 1.000000
illum 2

newmtl natureKit-wood.1713
Ns 96.078431
Ka 0.000000 0.000000 0.000000
Kd 1.000000 0.682353 0.435294
Ks 0.000000 0.000000 0.000000
Ke 0.000000 0.000000 0.000000
Ni 1.000000
d 1.000000
illum 2

newmtl natureKit-wood.1714
Ns 96.078431
Ka 0.000000 0.000000 0.000000
Kd 1.000000 0.682353 0.435294
Ks 0.000000 0.000000 0.000000
Ke 0.000000 0.000000 0.000000
Ni 1.000000
d 1.000000
illum 2

newmtl natureKit-wood.1715
Ns 96.078431
Ka 0.000000 0.000000 0.000000
Kd 1.000000 0.682353 0.435294
Ks 0.000000 0.000000 0.000000
Ke 0.000000 0.000000 0.000000
Ni 1.000000
d 1.000000
illum 2

newmtl natureKit-wood.1716
Ns 96.078431
Ka 0.000000 0.000000 0.000000
Kd 1.000000 0.682353 0.435294
Ks 0.000000 0.000000 0.000000
Ke 0.000000 0.000000 0.000000
Ni 1.000000
d 1.000000
illum 2

newmtl natureKit-wood.1717
Ns 96.078431
Ka 0.000000 0.000000 0.000000
Kd 1.000000 0.682353 0.435294
Ks 0.000000 0.000000 0.000000
Ke 0.000000 0.000000 0.000000
Ni 1.000000
d 1.000000
illum 2

newmtl natureKit-wood.1718
Ns 96.078431
Ka 0.000000 0.000000 0.000000
Kd 1.000000 0.682353 0.435294
Ks 0.000000 0.000000 0.000000
Ke 0.000000 0.000000 0.000000
Ni 1.000000
d 1.000000
illum 2

newmtl natureKit-wood.1719
Ns 96.078431
Ka 0.000000 0.000000 0.000000
Kd 1.000000 0.682353 0.435294
Ks 0.000000 0.000000 0.000000
Ke 0.000000 0.000000 0.000000
Ni 1.000000
d 1.000000
illum 2

newmtl natureKit-wood.1720
Ns 96.078431
Ka 0.000000 0.000000 0.000000
Kd 1.000000 0.682353 0.435294
Ks 0.000000 0.000000 0.000000
Ke 0.000000 0.000000 0.000000
Ni 1.000000
d 1.000000
illum 2

newmtl natureKit-wood.1721
Ns 96.078431
Ka 0.000000 0.000000 0.000000
Kd 1.000000 0.682353 0.435294
Ks 0.000000 0.000000 0.000000
Ke 0.000000 0.000000 0.000000
Ni 1.000000
d 1.000000
illum 2

newmtl natureKit-wood.1722
Ns 96.078431
Ka 0.000000 0.000000 0.000000
Kd 1.000000 0.682353 0.435294
Ks 0.000000 0.000000 0.000000
Ke 0.000000 0.000000 0.000000
Ni 1.000000
d 1.000000
illum 2

newmtl natureKit-wood.1723
Ns 96.078431
Ka 0.000000 0.000000 0.000000
Kd 1.000000 0.682353 0.435294
Ks 0.000000 0.000000 0.000000
Ke 0.000000 0.000000 0.000000
Ni 1.000000
d 1.000000
illum 2

newmtl natureKit-wood.1724
Ns 96.078431
Ka 0.000000 0.000000 0.000000
Kd 1.000000 0.682353 0.435294
Ks 0.000000 0.000000 0.000000
Ke 0.000000 0.000000 0.000000
Ni 1.000000
d 1.000000
illum 2

newmtl natureKit-wood.1725
Ns 96.078431
Ka 0.000000 0.000000 0.000000
Kd 1.000000 0.682353 0.435294
Ks 0.000000 0.000000 0.000000
Ke 0.000000 0.000000 0.000000
Ni 1.000000
d 1.000000
illum 2

newmtl natureKit-wood.1726
Ns 96.078431
Ka 0.000000 0.000000 0.000000
Kd 1.000000 0.682353 0.435294
Ks 0.000000 0.000000 0.000000
Ke 0.000000 0.000000 0.000000
Ni 1.000000
d 1.000000
illum 2

newmtl natureKit-wood.1727
Ns 96.078431
Ka 0.000000 0.000000 0.000000
Kd 1.000000 0.682353 0.435294
Ks 0.000000 0.000000 0.000000
Ke 0.000000 0.000000 0.000000
Ni 1.000000
d 1.000000
illum 2

newmtl natureKit-wood.1728
Ns 96.078431
Ka 0.000000 0.000000 0.000000
Kd 1.000000 0.682353 0.435294
Ks 0.000000 0.000000 0.000000
Ke 0.000000 0.000000 0.000000
Ni 1.000000
d 1.000000
illum 2

newmtl natureKit-wood.1729
Ns 96.078431
Ka 0.000000 0.000000 0.000000
Kd 1.000000 0.682353 0.435294
Ks 0.000000 0.000000 0.000000
Ke 0.000000 0.000000 0.000000
Ni 1.000000
d 1.000000
illum 2

newmtl natureKit-wood.1730
Ns 96.078431
Ka 0.000000 0.000000 0.000000
Kd 1.000000 0.682353 0.435294
Ks 0.000000 0.000000 0.000000
Ke 0.000000 0.000000 0.000000
Ni 1.000000
d 1.000000
illum 2

newmtl natureKit-wood.1731
Ns 96.078431
Ka 0.000000 0.000000 0.000000
Kd 1.000000 0.682353 0.435294
Ks 0.000000 0.000000 0.000000
Ke 0.000000 0.000000 0.000000
Ni 1.000000
d 1.000000
illum 2

newmtl natureKit-wood.1732
Ns 96.078431
Ka 0.000000 0.000000 0.000000
Kd 1.000000 0.682353 0.435294
Ks 0.000000 0.000000 0.000000
Ke 0.000000 0.000000 0.000000
Ni 1.000000
d 1.000000
illum 2

newmtl natureKit-wood.1733
Ns 96.078431
Ka 0.000000 0.000000 0.000000
Kd 1.000000 0.682353 0.435294
Ks 0.000000 0.000000 0.000000
Ke 0.000000 0.000000 0.000000
Ni 1.000000
d 1.000000
illum 2

newmtl natureKit-wood.1734
Ns 96.078431
Ka 0.000000 0.000000 0.000000
Kd 1.000000 0.682353 0.435294
Ks 0.000000 0.000000 0.000000
Ke 0.000000 0.000000 0.000000
Ni 1.000000
d 1.000000
illum 2

newmtl natureKit-wood.1735
Ns 96.078431
Ka 0.000000 0.000000 0.000000
Kd 1.000000 0.682353 0.435294
Ks 0.000000 0.000000 0.000000
Ke 0.000000 0.000000 0.000000
Ni 1.000000
d 1.000000
illum 2

newmtl natureKit-wood.1736
Ns 96.078431
Ka 0.000000 0.000000 0.000000
Kd 1.000000 0.682353 0.435294
Ks 0.000000 0.000000 0.000000
Ke 0.000000 0.000000 0.000000
Ni 1.000000
d 1.000000
illum 2

newmtl natureKit-wood.1737
Ns 96.078431
Ka 0.000000 0.000000 0.000000
Kd 1.000000 0.682353 0.435294
Ks 0.000000 0.000000 0.000000
Ke 0.000000 0.000000 0.000000
Ni 1.000000
d 1.000000
illum 2

newmtl natureKit-wood.1738
Ns 96.078431
Ka 0.000000 0.000000 0.000000
Kd 1.000000 0.682353 0.435294
Ks 0.000000 0.000000 0.000000
Ke 0.000000 0.000000 0.000000
Ni 1.000000
d 1.000000
illum 2

newmtl natureKit-wood.1739
Ns 96.078431
Ka 0.000000 0.000000 0.000000
Kd 1.000000 0.682353 0.435294
Ks 0.000000 0.000000 0.000000
Ke 0.000000 0.000000 0.000000
Ni 1.000000
d 1.000000
illum 2

newmtl natureKit-wood.1740
Ns 96.078431
Ka 0.000000 0.000000 0.000000
Kd 1.000000 0.682353 0.435294
Ks 0.000000 0.000000 0.000000
Ke 0.000000 0.000000 0.000000
Ni 1.000000
d 1.000000
illum 2

newmtl natureKit-wood.1741
Ns 96.078431
Ka 0.000000 0.000000 0.000000
Kd 1.000000 0.682353 0.435294
Ks 0.000000 0.000000 0.000000
Ke 0.000000 0.000000 0.000000
Ni 1.000000
d 1.000000
illum 2

newmtl natureKit-wood.1742
Ns 96.078431
Ka 0.000000 0.000000 0.000000
Kd 1.000000 0.682353 0.435294
Ks 0.000000 0.000000 0.000000
Ke 0.000000 0.000000 0.000000
Ni 1.000000
d 1.000000
illum 2

newmtl natureKit-wood.1743
Ns 96.078431
Ka 0.000000 0.000000 0.000000
Kd 1.000000 0.682353 0.435294
Ks 0.000000 0.000000 0.000000
Ke 0.000000 0.000000 0.000000
Ni 1.000000
d 1.000000
illum 2

newmtl natureKit-wood.1744
Ns 96.078431
Ka 0.000000 0.000000 0.000000
Kd 1.000000 0.682353 0.435294
Ks 0.000000 0.000000 0.000000
Ke 0.000000 0.000000 0.000000
Ni 1.000000
d 1.000000
illum 2

newmtl natureKit-wood.1745
Ns 96.078431
Ka 0.000000 0.000000 0.000000
Kd 1.000000 0.682353 0.435294
Ks 0.000000 0.000000 0.000000
Ke 0.000000 0.000000 0.000000
Ni 1.000000
d 1.000000
illum 2

newmtl natureKit-wood.1748
Ns 96.078431
Ka 0.000000 0.000000 0.000000
Kd 1.000000 0.682353 0.435294
Ks 0.000000 0.000000 0.000000
Ke 0.000000 0.000000 0.000000
Ni 1.000000
d 1.000000
illum 2

newmtl natureKit-wood.1749
Ns 96.078431
Ka 0.000000 0.000000 0.000000
Kd 1.000000 0.682353 0.435294
Ks 0.000000 0.000000 0.000000
Ke 0.000000 0.000000 0.000000
Ni 1.000000
d 1.000000
illum 2

newmtl natureKit-wood.1750
Ns 96.078431
Ka 0.000000 0.000000 0.000000
Kd 1.000000 0.682353 0.435294
Ks 0.000000 0.000000 0.000000
Ke 0.000000 0.000000 0.000000
Ni 1.000000
d 1.000000
illum 2

newmtl natureKit-wood.1751
Ns 96.078431
Ka 0.000000 0.000000 0.000000
Kd 1.000000 0.682353 0.435294
Ks 0.000000 0.000000 0.000000
Ke 0.000000 0.000000 0.000000
Ni 1.000000
d 1.000000
illum 2

newmtl natureKit-wood.1752
Ns 96.078431
Ka 0.000000 0.000000 0.000000
Kd 1.000000 0.682353 0.435294
Ks 0.000000 0.000000 0.000000
Ke 0.000000 0.000000 0.000000
Ni 1.000000
d 1.000000
illum 2

newmtl natureKit-wood.1753
Ns 96.078431
Ka 0.000000 0.000000 0.000000
Kd 1.000000 0.682353 0.435294
Ks 0.000000 0.000000 0.000000
Ke 0.000000 0.000000 0.000000
Ni 1.000000
d 1.000000
illum 2

newmtl natureKit-wood.1754
Ns 96.078431
Ka 0.000000 0.000000 0.000000
Kd 1.000000 0.682353 0.435294
Ks 0.000000 0.000000 0.000000
Ke 0.000000 0.000000 0.000000
Ni 1.000000
d 1.000000
illum 2

newmtl natureKit-wood.1755
Ns 96.078431
Ka 0.000000 0.000000 0.000000
Kd 1.000000 0.682353 0.435294
Ks 0.000000 0.000000 0.000000
Ke 0.000000 0.000000 0.000000
Ni 1.000000
d 1.000000
illum 2

newmtl natureKit-wood.1756
Ns 96.078431
Ka 0.000000 0.000000 0.000000
Kd 1.000000 0.682353 0.435294
Ks 0.000000 0.000000 0.000000
Ke 0.000000 0.000000 0.000000
Ni 1.000000
d 1.000000
illum 2

newmtl natureKit-wood.1757
Ns 96.078431
Ka 0.000000 0.000000 0.000000
Kd 1.000000 0.682353 0.435294
Ks 0.000000 0.000000 0.000000
Ke 0.000000 0.000000 0.000000
Ni 1.000000
d 1.000000
illum 2

newmtl natureKit-wood.1758
Ns 96.078431
Ka 0.000000 0.000000 0.000000
Kd 1.000000 0.682353 0.435294
Ks 0.000000 0.000000 0.000000
Ke 0.000000 0.000000 0.000000
Ni 1.000000
d 1.000000
illum 2

newmtl natureKit-wood.1759
Ns 96.078431
Ka 0.000000 0.000000 0.000000
Kd 1.000000 0.682353 0.435294
Ks 0.000000 0.000000 0.000000
Ke 0.000000 0.000000 0.000000
Ni 1.000000
d 1.000000
illum 2

newmtl natureKit-wood.1760
Ns 96.078431
Ka 0.000000 0.000000 0.000000
Kd 1.000000 0.682353 0.435294
Ks 0.000000 0.000000 0.000000
Ke 0.000000 0.000000 0.000000
Ni 1.000000
d 1.000000
illum 2

newmtl natureKit-wood.1761
Ns 96.078431
Ka 0.000000 0.000000 0.000000
Kd 1.000000 0.682353 0.435294
Ks 0.000000 0.000000 0.000000
Ke 0.000000 0.000000 0.000000
Ni 1.000000
d 1.000000
illum 2

newmtl natureKit-wood.1762
Ns 96.078431
Ka 0.000000 0.000000 0.000000
Kd 1.000000 0.682353 0.435294
Ks 0.000000 0.000000 0.000000
Ke 0.000000 0.000000 0.000000
Ni 1.000000
d 1.000000
illum 2

newmtl natureKit-wood.1763
Ns 96.078431
Ka 0.000000 0.000000 0.000000
Kd 1.000000 0.682353 0.435294
Ks 0.000000 0.000000 0.000000
Ke 0.000000 0.000000 0.000000
Ni 1.000000
d 1.000000
illum 2

newmtl natureKit-wood.1764
Ns 96.078431
Ka 0.000000 0.000000 0.000000
Kd 1.000000 0.682353 0.435294
Ks 0.000000 0.000000 0.000000
Ke 0.000000 0.000000 0.000000
Ni 1.000000
d 1.000000
illum 2

newmtl natureKit-wood.1765
Ns 96.078431
Ka 0.000000 0.000000 0.000000
Kd 1.000000 0.682353 0.435294
Ks 0.000000 0.000000 0.000000
Ke 0.000000 0.000000 0.000000
Ni 1.000000
d 1.000000
illum 2

newmtl natureKit-wood.1766
Ns 96.078431
Ka 0.000000 0.000000 0.000000
Kd 1.000000 0.682353 0.435294
Ks 0.000000 0.000000 0.000000
Ke 0.000000 0.000000 0.000000
Ni 1.000000
d 1.000000
illum 2

newmtl natureKit-wood.1767
Ns 96.078431
Ka 0.000000 0.000000 0.000000
Kd 1.000000 0.682353 0.435294
Ks 0.000000 0.000000 0.000000
Ke 0.000000 0.000000 0.000000
Ni 1.000000
d 1.000000
illum 2

newmtl natureKit-wood.1768
Ns 96.078431
Ka 0.000000 0.000000 0.000000
Kd 1.000000 0.682353 0.435294
Ks 0.000000 0.000000 0.000000
Ke 0.000000 0.000000 0.000000
Ni 1.000000
d 1.000000
illum 2

newmtl natureKit-wood.1769
Ns 96.078431
Ka 0.000000 0.000000 0.000000
Kd 1.000000 0.682353 0.435294
Ks 0.000000 0.000000 0.000000
Ke 0.000000 0.000000 0.000000
Ni 1.000000
d 1.000000
illum 2

newmtl natureKit-wood.1770
Ns 96.078431
Ka 0.000000 0.000000 0.000000
Kd 1.000000 0.682353 0.435294
Ks 0.000000 0.000000 0.000000
Ke 0.000000 0.000000 0.000000
Ni 1.000000
d 1.000000
illum 2

newmtl natureKit-wood.1771
Ns 96.078431
Ka 0.000000 0.000000 0.000000
Kd 1.000000 0.682353 0.435294
Ks 0.000000 0.000000 0.000000
Ke 0.000000 0.000000 0.000000
Ni 1.000000
d 1.000000
illum 2

newmtl natureKit-wood.1772
Ns 96.078431
Ka 0.000000 0.000000 0.000000
Kd 1.000000 0.682353 0.435294
Ks 0.000000 0.000000 0.000000
Ke 0.000000 0.000000 0.000000
Ni 1.000000
d 1.000000
illum 2

newmtl natureKit-wood.1773
Ns 96.078431
Ka 0.000000 0.000000 0.000000
Kd 1.000000 0.682353 0.435294
Ks 0.000000 0.000000 0.000000
Ke 0.000000 0.000000 0.000000
Ni 1.000000
d 1.000000
illum 2

newmtl natureKit-wood.1774
Ns 96.078431
Ka 0.000000 0.000000 0.000000
Kd 1.000000 0.682353 0.435294
Ks 0.000000 0.000000 0.000000
Ke 0.000000 0.000000 0.000000
Ni 1.000000
d 1.000000
illum 2

newmtl natureKit-wood.1775
Ns 96.078431
Ka 0.000000 0.000000 0.000000
Kd 1.000000 0.682353 0.435294
Ks 0.000000 0.000000 0.000000
Ke 0.000000 0.000000 0.000000
Ni 1.000000
d 1.000000
illum 2

newmtl natureKit-woodLight.154
Ns 96.078431
Ka 0.000000 0.000000 0.000000
Kd 0.996078 0.780392 0.639216
Ks 0.000000 0.000000 0.000000
Ke 0.000000 0.000000 0.000000
Ni 1.000000
d 1.000000
illum 2

newmtl natureKit-woodLight.155
Ns 96.078431
Ka 0.000000 0.000000 0.000000
Kd 0.996078 0.780392 0.639216
Ks 0.000000 0.000000 0.000000
Ke 0.000000 0.000000 0.000000
Ni 1.000000
d 1.000000
illum 2

newmtl natureKit-woodLight.156
Ns 96.078431
Ka 0.000000 0.000000 0.000000
Kd 0.996078 0.780392 0.639216
Ks 0.000000 0.000000 0.000000
Ke 0.000000 0.000000 0.000000
Ni 1.000000
d 1.000000
illum 2

newmtl natureKit-woodLight.157
Ns 96.078431
Ka 0.000000 0.000000 0.000000
Kd 0.996078 0.780392 0.639216
Ks 0.000000 0.000000 0.000000
Ke 0.000000 0.000000 0.000000
Ni 1.000000
d 1.000000
illum 2

newmtl natureKit-woodLight.158
Ns 96.078431
Ka 0.000000 0.000000 0.000000
Kd 0.996078 0.780392 0.639216
Ks 0.000000 0.000000 0.000000
Ke 0.000000 0.000000 0.000000
Ni 1.000000
d 1.000000
illum 2

newmtl natureKit-woodLight.159
Ns 96.078431
Ka 0.000000 0.000000 0.000000
Kd 0.996078 0.780392 0.639216
Ks 0.000000 0.000000 0.000000
Ke 0.000000 0.000000 0.000000
Ni 1.000000
d 1.000000
illum 2

newmtl natureKit-woodLight.160
Ns 96.078431
Ka 0.000000 0.000000 0.000000
Kd 0.996078 0.780392 0.639216
Ks 0.000000 0.000000 0.000000
Ke 0.000000 0.000000 0.000000
Ni 1.000000
d 1.000000
illum 2

newmtl natureKit-woodLight.161
Ns 96.078431
Ka 0.000000 0.000000 0.000000
Kd 0.996078 0.780392 0.639216
Ks 0.000000 0.000000 0.000000
Ke 0.000000 0.000000 0.000000
Ni 1.000000
d 1.000000
illum 2

newmtl natureKit-woodLight.162
Ns 96.078431
Ka 0.000000 0.000000 0.000000
Kd 0.996078 0.780392 0.639216
Ks 0.000000 0.000000 0.000000
Ke 0.000000 0.000000 0.000000
Ni 1.000000
d 1.000000
illum 2

newmtl natureKit-woodLight.163
Ns 96.078431
Ka 0.000000 0.000000 0.000000
Kd 0.996078 0.780392 0.639216
Ks 0.000000 0.000000 0.000000
Ke 0.000000 0.000000 0.000000
Ni 1.000000
d 1.000000
illum 2

newmtl natureKit-woodLight.165
Ns 96.078431
Ka 0.000000 0.000000 0.000000
Kd 0.996078 0.780392 0.639216
Ks 0.000000 0.000000 0.000000
Ke 0.000000 0.000000 0.000000
Ni 1.000000
d 1.000000
illum 2

newmtl natureKit-woodLight.166
Ns 96.078431
Ka 0.000000 0.000000 0.000000
Kd 0.996078 0.780392 0.639216
Ks 0.000000 0.000000 0.000000
Ke 0.000000 0.000000 0.000000
Ni 1.000000
d 1.000000
illum 2
